(export (version D)
  (design
    (source /home/dev/workspace/hetii/mcunurse/kicad/mcunurse.sch)
    (date "czw, 4 kwi 2019, 13:59:26")
    (tool "Eeschema 5.0.2-bee76a0~70~ubuntu18.10.1")
    (sheet (number 1) (name /) (tstamps /)
      (title_block
        (title)
        (company)
        (rev)
        (date)
        (source mcunurse.sch)
        (comment (number 1) (value ""))
        (comment (number 2) (value ""))
        (comment (number 3) (value ""))
        (comment (number 4) (value "")))))
  (components
    (comp (ref J1)
      (value ZIF)
      (footprint Socket:3M_Textool_240-1288-00-0602J_2x20_P2.54mm)
      (datasheet ~)
      (libsource (lib Connector_Generic) (part Conn_02x20_Counter_Clockwise) (description "Generic connector, double row, 02x20, counter clockwise pin numbering scheme (similar to DIP packge numbering), script generated (kicad-library-utils/schlib/autogen/connector/)"))
      (sheetpath (names /) (tstamps /))
      (tstamp 5C995589))
    (comp (ref U1)
      (value ATmega128-16AU)
      (footprint Package_QFP:TQFP-64_14x14mm_P0.8mm)
      (datasheet http://ww1.microchip.com/downloads/en/DeviceDoc/doc2467.pdf)
      (libsource (lib MCU_Microchip_ATmega) (part ATmega128-16AU) (description "16MHz, 128kB Flash, 4kB SRAM, 4kB EEPROM, JTAG, TQFP-64"))
      (sheetpath (names /) (tstamps /))
      (tstamp 5C6E5D23))
    (comp (ref R5)
      (value 1K)
      (footprint Resistor_SMD:R_0603_1608Metric_Pad1.05x0.95mm_HandSolder)
      (datasheet ~)
      (libsource (lib Device) (part R) (description Resistor))
      (sheetpath (names /) (tstamps /))
      (tstamp 5C8CA8ED))
    (comp (ref R34)
      (value 22k)
      (footprint Resistor_SMD:R_0603_1608Metric_Pad1.05x0.95mm_HandSolder)
      (datasheet ~)
      (libsource (lib Device) (part R) (description Resistor))
      (sheetpath (names /) (tstamps /))
      (tstamp 5C8DAA87))
    (comp (ref R4)
      (value 22k)
      (footprint Resistor_SMD:R_0603_1608Metric_Pad1.05x0.95mm_HandSolder)
      (datasheet ~)
      (libsource (lib Device) (part R) (description Resistor))
      (sheetpath (names /) (tstamps /))
      (tstamp 5C8E57D0))
    (comp (ref R35)
      (value 1K)
      (footprint Resistor_SMD:R_0603_1608Metric_Pad1.05x0.95mm_HandSolder)
      (datasheet ~)
      (libsource (lib Device) (part R) (description Resistor))
      (sheetpath (names /) (tstamps /))
      (tstamp 5C8E57D9))
    (comp (ref R7)
      (value 1K)
      (footprint Resistor_SMD:R_0603_1608Metric_Pad1.05x0.95mm_HandSolder)
      (datasheet ~)
      (libsource (lib Device) (part R) (description Resistor))
      (sheetpath (names /) (tstamps /))
      (tstamp 5C8EB5F7))
    (comp (ref R32)
      (value 1K)
      (footprint Resistor_SMD:R_0603_1608Metric_Pad1.05x0.95mm_HandSolder)
      (datasheet ~)
      (libsource (lib Device) (part R) (description Resistor))
      (sheetpath (names /) (tstamps /))
      (tstamp 5C8EB600))
    (comp (ref R6)
      (value 1K)
      (footprint Resistor_SMD:R_0603_1608Metric_Pad1.05x0.95mm_HandSolder)
      (datasheet ~)
      (libsource (lib Device) (part R) (description Resistor))
      (sheetpath (names /) (tstamps /))
      (tstamp 5C8EB609))
    (comp (ref R33)
      (value 1K)
      (footprint Resistor_SMD:R_0603_1608Metric_Pad1.05x0.95mm_HandSolder)
      (datasheet ~)
      (libsource (lib Device) (part R) (description Resistor))
      (sheetpath (names /) (tstamps /))
      (tstamp 5C8EB612))
    (comp (ref R8)
      (value 1K)
      (footprint Resistor_SMD:R_0603_1608Metric_Pad1.05x0.95mm_HandSolder)
      (datasheet ~)
      (libsource (lib Device) (part R) (description Resistor))
      (sheetpath (names /) (tstamps /))
      (tstamp 5C9B853E))
    (comp (ref R11)
      (value 1K)
      (footprint Resistor_SMD:R_0603_1608Metric_Pad1.05x0.95mm_HandSolder)
      (datasheet ~)
      (libsource (lib Device) (part R) (description Resistor))
      (sheetpath (names /) (tstamps /))
      (tstamp 5C9BF27D))
    (comp (ref R29)
      (value 1K)
      (footprint Resistor_SMD:R_0603_1608Metric_Pad1.05x0.95mm_HandSolder)
      (datasheet ~)
      (libsource (lib Device) (part R) (description Resistor))
      (sheetpath (names /) (tstamps /))
      (tstamp 5C9BF285))
    (comp (ref R12)
      (value 1K)
      (footprint Resistor_SMD:R_0603_1608Metric_Pad1.05x0.95mm_HandSolder)
      (datasheet ~)
      (libsource (lib Device) (part R) (description Resistor))
      (sheetpath (names /) (tstamps /))
      (tstamp 5C9BF28D))
    (comp (ref R28)
      (value 1K)
      (footprint Resistor_SMD:R_0603_1608Metric_Pad1.05x0.95mm_HandSolder)
      (datasheet ~)
      (libsource (lib Device) (part R) (description Resistor))
      (sheetpath (names /) (tstamps /))
      (tstamp 5C9BF295))
    (comp (ref R9)
      (value 22k)
      (footprint Resistor_SMD:R_0603_1608Metric_Pad1.05x0.95mm_HandSolder)
      (datasheet ~)
      (libsource (lib Device) (part R) (description Resistor))
      (sheetpath (names /) (tstamps /))
      (tstamp 5C9BF29D))
    (comp (ref R31)
      (value 22k)
      (footprint Resistor_SMD:R_0603_1608Metric_Pad1.05x0.95mm_HandSolder)
      (datasheet ~)
      (libsource (lib Device) (part R) (description Resistor))
      (sheetpath (names /) (tstamps /))
      (tstamp 5C9BF2A5))
    (comp (ref R10)
      (value 22k)
      (footprint Resistor_SMD:R_0603_1608Metric_Pad1.05x0.95mm_HandSolder)
      (datasheet ~)
      (libsource (lib Device) (part R) (description Resistor))
      (sheetpath (names /) (tstamps /))
      (tstamp 5C9BF2AD))
    (comp (ref R30)
      (value 1K)
      (footprint Resistor_SMD:R_0603_1608Metric_Pad1.05x0.95mm_HandSolder)
      (datasheet ~)
      (libsource (lib Device) (part R) (description Resistor))
      (sheetpath (names /) (tstamps /))
      (tstamp 5C9BF2B5))
    (comp (ref R27)
      (value 1K)
      (footprint Resistor_SMD:R_0603_1608Metric_Pad1.05x0.95mm_HandSolder)
      (datasheet ~)
      (libsource (lib Device) (part R) (description Resistor))
      (sheetpath (names /) (tstamps /))
      (tstamp 5C9D1667))
    (comp (ref R13)
      (value 1K)
      (footprint Resistor_SMD:R_0603_1608Metric_Pad1.05x0.95mm_HandSolder)
      (datasheet ~)
      (libsource (lib Device) (part R) (description Resistor))
      (sheetpath (names /) (tstamps /))
      (tstamp 5C9DA538))
    (comp (ref R16)
      (value 1K)
      (footprint Resistor_SMD:R_0603_1608Metric_Pad1.05x0.95mm_HandSolder)
      (datasheet ~)
      (libsource (lib Device) (part R) (description Resistor))
      (sheetpath (names /) (tstamps /))
      (tstamp 5C9E3BF0))
    (comp (ref R24)
      (value 1K)
      (footprint Resistor_SMD:R_0603_1608Metric_Pad1.05x0.95mm_HandSolder)
      (datasheet ~)
      (libsource (lib Device) (part R) (description Resistor))
      (sheetpath (names /) (tstamps /))
      (tstamp 5C9E3BF8))
    (comp (ref R17)
      (value 1K)
      (footprint Resistor_SMD:R_0603_1608Metric_Pad1.05x0.95mm_HandSolder)
      (datasheet ~)
      (libsource (lib Device) (part R) (description Resistor))
      (sheetpath (names /) (tstamps /))
      (tstamp 5C9E3C00))
    (comp (ref R23)
      (value 1K)
      (footprint Resistor_SMD:R_0603_1608Metric_Pad1.05x0.95mm_HandSolder)
      (datasheet ~)
      (libsource (lib Device) (part R) (description Resistor))
      (sheetpath (names /) (tstamps /))
      (tstamp 5C9E3C08))
    (comp (ref R14)
      (value 1K)
      (footprint Resistor_SMD:R_0603_1608Metric_Pad1.05x0.95mm_HandSolder)
      (datasheet ~)
      (libsource (lib Device) (part R) (description Resistor))
      (sheetpath (names /) (tstamps /))
      (tstamp 5C9E3C10))
    (comp (ref R26)
      (value 1K)
      (footprint Resistor_SMD:R_0603_1608Metric_Pad1.05x0.95mm_HandSolder)
      (datasheet ~)
      (libsource (lib Device) (part R) (description Resistor))
      (sheetpath (names /) (tstamps /))
      (tstamp 5C9E3C18))
    (comp (ref R15)
      (value 1K)
      (footprint Resistor_SMD:R_0603_1608Metric_Pad1.05x0.95mm_HandSolder)
      (datasheet ~)
      (libsource (lib Device) (part R) (description Resistor))
      (sheetpath (names /) (tstamps /))
      (tstamp 5C9E3C20))
    (comp (ref R25)
      (value 1K)
      (footprint Resistor_SMD:R_0603_1608Metric_Pad1.05x0.95mm_HandSolder)
      (datasheet ~)
      (libsource (lib Device) (part R) (description Resistor))
      (sheetpath (names /) (tstamps /))
      (tstamp 5C9E3C28))
    (comp (ref R2)
      (value 1K)
      (footprint Resistor_SMD:R_0603_1608Metric_Pad1.05x0.95mm_HandSolder)
      (datasheet ~)
      (libsource (lib Device) (part R) (description Resistor))
      (sheetpath (names /) (tstamps /))
      (tstamp 5CA165A4))
    (comp (ref R39)
      (value 1K)
      (footprint Resistor_SMD:R_0603_1608Metric_Pad1.05x0.95mm_HandSolder)
      (datasheet ~)
      (libsource (lib Device) (part R) (description Resistor))
      (sheetpath (names /) (tstamps /))
      (tstamp 5CA165AC))
    (comp (ref R1)
      (value 22k)
      (footprint Resistor_SMD:R_0603_1608Metric_Pad1.05x0.95mm_HandSolder)
      (datasheet ~)
      (libsource (lib Device) (part R) (description Resistor))
      (sheetpath (names /) (tstamps /))
      (tstamp 5CA165B4))
    (comp (ref R40)
      (value 1K)
      (footprint Resistor_SMD:R_0603_1608Metric_Pad1.05x0.95mm_HandSolder)
      (datasheet ~)
      (libsource (lib Device) (part R) (description Resistor))
      (sheetpath (names /) (tstamps /))
      (tstamp 5CA165BC))
    (comp (ref R3)
      (value 1K)
      (footprint Resistor_SMD:R_0603_1608Metric_Pad1.05x0.95mm_HandSolder)
      (datasheet ~)
      (libsource (lib Device) (part R) (description Resistor))
      (sheetpath (names /) (tstamps /))
      (tstamp 5CA165C4))
    (comp (ref R36)
      (value 22k)
      (footprint Resistor_SMD:R_0603_1608Metric_Pad1.05x0.95mm_HandSolder)
      (datasheet ~)
      (libsource (lib Device) (part R) (description Resistor))
      (sheetpath (names /) (tstamps /))
      (tstamp 5CA165CC))
    (comp (ref R38)
      (value 1K)
      (footprint Resistor_SMD:R_0603_1608Metric_Pad1.05x0.95mm_HandSolder)
      (datasheet ~)
      (libsource (lib Device) (part R) (description Resistor))
      (sheetpath (names /) (tstamps /))
      (tstamp 5CA165D4))
    (comp (ref R37)
      (value 1K)
      (footprint Resistor_SMD:R_0603_1608Metric_Pad1.05x0.95mm_HandSolder)
      (datasheet ~)
      (libsource (lib Device) (part R) (description Resistor))
      (sheetpath (names /) (tstamps /))
      (tstamp 5CA165DC))
    (comp (ref R19)
      (value 1K)
      (footprint Resistor_SMD:R_0603_1608Metric_Pad1.05x0.95mm_HandSolder)
      (datasheet ~)
      (libsource (lib Device) (part R) (description Resistor))
      (sheetpath (names /) (tstamps /))
      (tstamp 5CA20D61))
    (comp (ref R18)
      (value 1K)
      (footprint Resistor_SMD:R_0603_1608Metric_Pad1.05x0.95mm_HandSolder)
      (datasheet ~)
      (libsource (lib Device) (part R) (description Resistor))
      (sheetpath (names /) (tstamps /))
      (tstamp 5CA20D69))
    (comp (ref R21)
      (value 1K)
      (footprint Resistor_SMD:R_0603_1608Metric_Pad1.05x0.95mm_HandSolder)
      (datasheet ~)
      (libsource (lib Device) (part R) (description Resistor))
      (sheetpath (names /) (tstamps /))
      (tstamp 5CA20D71))
    (comp (ref R22)
      (value 1K)
      (footprint Resistor_SMD:R_0603_1608Metric_Pad1.05x0.95mm_HandSolder)
      (datasheet ~)
      (libsource (lib Device) (part R) (description Resistor))
      (sheetpath (names /) (tstamps /))
      (tstamp 5CA20D79))
    (comp (ref Y1)
      (value 16MHz)
      (footprint Crystal:Crystal_HC49-4H_Vertical)
      (datasheet ~)
      (libsource (lib Device) (part Crystal_Small) (description "Two pin crystal, small symbol"))
      (sheetpath (names /) (tstamps /))
      (tstamp 5CA44DCC))
    (comp (ref C1)
      (value 22pF)
      (footprint Capacitor_SMD:C_0805_2012Metric_Pad1.15x1.40mm_HandSolder)
      (datasheet ~)
      (libsource (lib Device) (part C) (description "Unpolarized capacitor"))
      (sheetpath (names /) (tstamps /))
      (tstamp 5CA44EE8))
    (comp (ref C2)
      (value 22pF)
      (footprint Capacitor_SMD:C_0805_2012Metric_Pad1.15x1.40mm_HandSolder)
      (datasheet ~)
      (libsource (lib Device) (part C) (description "Unpolarized capacitor"))
      (sheetpath (names /) (tstamps /))
      (tstamp 5CA4504D))
    (comp (ref U2)
      (value stm32f103c8t6-module-china)
      (footprint STM32:stm32f103c8t6-module-china)
      (libsource (lib stm32f103c8t6-module-china) (part stm32f103c8t6-module-china) (description ""))
      (sheetpath (names /) (tstamps /))
      (tstamp 5C7A1567))
    (comp (ref J2)
      (value A14)
      (footprint Connector_PinHeader_2.54mm:PinHeader_1x01_P2.54mm_Vertical)
      (datasheet ~)
      (libsource (lib Connector) (part Conn_01x01_Female) (description "Generic connector, single row, 01x01, script generated (kicad-library-utils/schlib/autogen/connector/)"))
      (sheetpath (names /) (tstamps /))
      (tstamp 5C7A223C))
    (comp (ref J3)
      (value A13)
      (footprint Connector_PinHeader_2.54mm:PinHeader_1x01_P2.54mm_Vertical)
      (datasheet ~)
      (libsource (lib Connector) (part Conn_01x01_Female) (description "Generic connector, single row, 01x01, script generated (kicad-library-utils/schlib/autogen/connector/)"))
      (sheetpath (names /) (tstamps /))
      (tstamp 5C7A2A41))
    (comp (ref R42)
      (value 10k)
      (footprint Resistor_SMD:R_0603_1608Metric_Pad1.05x0.95mm_HandSolder)
      (datasheet ~)
      (libsource (lib Device) (part R) (description Resistor))
      (sheetpath (names /) (tstamps /))
      (tstamp 5C7FC8E2))
    (comp (ref C3)
      (value 100nF)
      (footprint Capacitor_SMD:C_0805_2012Metric_Pad1.15x1.40mm_HandSolder)
      (datasheet ~)
      (libsource (lib Device) (part C) (description "Unpolarized capacitor"))
      (sheetpath (names /) (tstamps /))
      (tstamp 5C7FCA75))
    (comp (ref R41)
      (value 4k7)
      (footprint Resistor_SMD:R_0603_1608Metric_Pad1.05x0.95mm_HandSolder)
      (datasheet ~)
      (libsource (lib Device) (part R) (description Resistor))
      (sheetpath (names /) (tstamps /))
      (tstamp 5C8086B6))
    (comp (ref R43)
      (value 10K)
      (footprint Resistor_SMD:R_0603_1608Metric_Pad1.05x0.95mm_HandSolder)
      (datasheet ~)
      (libsource (lib Device) (part R) (description Resistor))
      (sheetpath (names /) (tstamps /))
      (tstamp 5C86C747))
    (comp (ref J4)
      (value z1)
      (footprint Connector_Wire:SolderWirePad_1x01_Drill0.8mm)
      (datasheet ~)
      (libsource (lib Connector) (part Conn_01x01_Female) (description "Generic connector, single row, 01x01, script generated (kicad-library-utils/schlib/autogen/connector/)"))
      (sheetpath (names /) (tstamps /))
      (tstamp 5C8ECA1B))
    (comp (ref J5)
      (value z1)
      (footprint Connector_Wire:SolderWirePad_1x01_Drill0.8mm)
      (datasheet ~)
      (libsource (lib Connector) (part Conn_01x01_Female) (description "Generic connector, single row, 01x01, script generated (kicad-library-utils/schlib/autogen/connector/)"))
      (sheetpath (names /) (tstamps /))
      (tstamp 5C8FA275))
    (comp (ref R20)
      (value 1K)
      (footprint Resistor_SMD:R_0603_1608Metric_Pad1.05x0.95mm_HandSolder)
      (datasheet ~)
      (libsource (lib Device) (part R) (description Resistor))
      (sheetpath (names /) (tstamps /))
      (tstamp 5C9FF92D))
    (comp (ref J6)
      (value z2)
      (footprint Connector_Wire:SolderWirePad_1x01_Drill0.8mm)
      (datasheet ~)
      (libsource (lib Connector) (part Conn_01x01_Female) (description "Generic connector, single row, 01x01, script generated (kicad-library-utils/schlib/autogen/connector/)"))
      (sheetpath (names /) (tstamps /))
      (tstamp 5C7BA672))
    (comp (ref C4)
      (value 100nF)
      (footprint Capacitor_SMD:C_0805_2012Metric_Pad1.15x1.40mm_HandSolder)
      (datasheet ~)
      (libsource (lib Device) (part C) (description "Unpolarized capacitor"))
      (sheetpath (names /) (tstamps /))
      (tstamp 5C89CB84))
    (comp (ref Q1)
      (value BC807)
      (footprint Package_TO_SOT_SMD:SOT-23)
      (datasheet http://www.fairchildsemi.com/ds/BC/BC807.pdf)
      (libsource (lib Transistor_BJT) (part BC807) (description "0.8A Ic, 45V Vce, PNP Transistor, SOT-23"))
      (sheetpath (names /) (tstamps /))
      (tstamp 5C8D75C3))
    (comp (ref R44)
      (value 1k)
      (footprint Resistor_SMD:R_1206_3216Metric_Pad1.42x1.75mm_HandSolder)
      (datasheet ~)
      (libsource (lib Device) (part R) (description Resistor))
      (sheetpath (names /) (tstamps /))
      (tstamp 5C8E6320))
    (comp (ref Q2)
      (value BC807)
      (footprint Package_TO_SOT_SMD:SOT-23)
      (datasheet http://www.fairchildsemi.com/ds/BC/BC807.pdf)
      (libsource (lib Transistor_BJT) (part BC807) (description "0.8A Ic, 45V Vce, PNP Transistor, SOT-23"))
      (sheetpath (names /) (tstamps /))
      (tstamp 5C907593))
    (comp (ref R45)
      (value 1k)
      (footprint Resistor_SMD:R_1206_3216Metric_Pad1.42x1.75mm_HandSolder)
      (datasheet ~)
      (libsource (lib Device) (part R) (description Resistor))
      (sheetpath (names /) (tstamps /))
      (tstamp 5C90759A))
    (comp (ref Q3)
      (value BC807)
      (footprint Package_TO_SOT_SMD:SOT-23)
      (datasheet http://www.fairchildsemi.com/ds/BC/BC807.pdf)
      (libsource (lib Transistor_BJT) (part BC807) (description "0.8A Ic, 45V Vce, PNP Transistor, SOT-23"))
      (sheetpath (names /) (tstamps /))
      (tstamp 5C91684F))
    (comp (ref R46)
      (value 1k)
      (footprint Resistor_SMD:R_1206_3216Metric_Pad1.42x1.75mm_HandSolder)
      (datasheet ~)
      (libsource (lib Device) (part R) (description Resistor))
      (sheetpath (names /) (tstamps /))
      (tstamp 5C916856))
    (comp (ref Q4)
      (value BC807)
      (footprint Package_TO_SOT_SMD:SOT-23)
      (datasheet http://www.fairchildsemi.com/ds/BC/BC807.pdf)
      (libsource (lib Transistor_BJT) (part BC807) (description "0.8A Ic, 45V Vce, PNP Transistor, SOT-23"))
      (sheetpath (names /) (tstamps /))
      (tstamp 5C91685D))
    (comp (ref R47)
      (value 1k)
      (footprint Resistor_SMD:R_1206_3216Metric_Pad1.42x1.75mm_HandSolder)
      (datasheet ~)
      (libsource (lib Device) (part R) (description Resistor))
      (sheetpath (names /) (tstamps /))
      (tstamp 5C916864))
    (comp (ref Q5)
      (value BC807)
      (footprint Package_TO_SOT_SMD:SOT-23)
      (datasheet http://www.fairchildsemi.com/ds/BC/BC807.pdf)
      (libsource (lib Transistor_BJT) (part BC807) (description "0.8A Ic, 45V Vce, PNP Transistor, SOT-23"))
      (sheetpath (names /) (tstamps /))
      (tstamp 5C937265))
    (comp (ref R48)
      (value 1k)
      (footprint Resistor_SMD:R_1206_3216Metric_Pad1.42x1.75mm_HandSolder)
      (datasheet ~)
      (libsource (lib Device) (part R) (description Resistor))
      (sheetpath (names /) (tstamps /))
      (tstamp 5C93726C))
    (comp (ref Q6)
      (value BC807)
      (footprint Package_TO_SOT_SMD:SOT-23)
      (datasheet http://www.fairchildsemi.com/ds/BC/BC807.pdf)
      (libsource (lib Transistor_BJT) (part BC807) (description "0.8A Ic, 45V Vce, PNP Transistor, SOT-23"))
      (sheetpath (names /) (tstamps /))
      (tstamp 5C937273))
    (comp (ref R49)
      (value 1k)
      (footprint Resistor_SMD:R_1206_3216Metric_Pad1.42x1.75mm_HandSolder)
      (datasheet ~)
      (libsource (lib Device) (part R) (description Resistor))
      (sheetpath (names /) (tstamps /))
      (tstamp 5C93727A))
    (comp (ref Q7)
      (value BC807)
      (footprint Package_TO_SOT_SMD:SOT-23)
      (datasheet http://www.fairchildsemi.com/ds/BC/BC807.pdf)
      (libsource (lib Transistor_BJT) (part BC807) (description "0.8A Ic, 45V Vce, PNP Transistor, SOT-23"))
      (sheetpath (names /) (tstamps /))
      (tstamp 5C9D7A96))
    (comp (ref R50)
      (value 1k)
      (footprint Resistor_SMD:R_1206_3216Metric_Pad1.42x1.75mm_HandSolder)
      (datasheet ~)
      (libsource (lib Device) (part R) (description Resistor))
      (sheetpath (names /) (tstamps /))
      (tstamp 5C9D7A9D))
    (comp (ref Q8)
      (value BC807)
      (footprint Package_TO_SOT_SMD:SOT-23)
      (datasheet http://www.fairchildsemi.com/ds/BC/BC807.pdf)
      (libsource (lib Transistor_BJT) (part BC807) (description "0.8A Ic, 45V Vce, PNP Transistor, SOT-23"))
      (sheetpath (names /) (tstamps /))
      (tstamp 5C9D7AAA))
    (comp (ref R51)
      (value 1k)
      (footprint Resistor_SMD:R_1206_3216Metric_Pad1.42x1.75mm_HandSolder)
      (datasheet ~)
      (libsource (lib Device) (part R) (description Resistor))
      (sheetpath (names /) (tstamps /))
      (tstamp 5C9D7AB1))
    (comp (ref Q9)
      (value BC807)
      (footprint Package_TO_SOT_SMD:SOT-23)
      (datasheet http://www.fairchildsemi.com/ds/BC/BC807.pdf)
      (libsource (lib Transistor_BJT) (part BC807) (description "0.8A Ic, 45V Vce, PNP Transistor, SOT-23"))
      (sheetpath (names /) (tstamps /))
      (tstamp 5C9D7AB8))
    (comp (ref R52)
      (value 1k)
      (footprint Resistor_SMD:R_1206_3216Metric_Pad1.42x1.75mm_HandSolder)
      (datasheet ~)
      (libsource (lib Device) (part R) (description Resistor))
      (sheetpath (names /) (tstamps /))
      (tstamp 5C9D7ABF))
    (comp (ref Q10)
      (value BC807)
      (footprint Package_TO_SOT_SMD:SOT-23)
      (datasheet http://www.fairchildsemi.com/ds/BC/BC807.pdf)
      (libsource (lib Transistor_BJT) (part BC807) (description "0.8A Ic, 45V Vce, PNP Transistor, SOT-23"))
      (sheetpath (names /) (tstamps /))
      (tstamp 5C9D7AC6))
    (comp (ref R53)
      (value 1k)
      (footprint Resistor_SMD:R_1206_3216Metric_Pad1.42x1.75mm_HandSolder)
      (datasheet ~)
      (libsource (lib Device) (part R) (description Resistor))
      (sheetpath (names /) (tstamps /))
      (tstamp 5C9D7ACD))
    (comp (ref Q11)
      (value BC807)
      (footprint Package_TO_SOT_SMD:SOT-23)
      (datasheet http://www.fairchildsemi.com/ds/BC/BC807.pdf)
      (libsource (lib Transistor_BJT) (part BC807) (description "0.8A Ic, 45V Vce, PNP Transistor, SOT-23"))
      (sheetpath (names /) (tstamps /))
      (tstamp 5C9D7AD4))
    (comp (ref R54)
      (value 1k)
      (footprint Resistor_SMD:R_1206_3216Metric_Pad1.42x1.75mm_HandSolder)
      (datasheet ~)
      (libsource (lib Device) (part R) (description Resistor))
      (sheetpath (names /) (tstamps /))
      (tstamp 5C9D7ADB))
    (comp (ref Q12)
      (value BC807)
      (footprint Package_TO_SOT_SMD:SOT-23)
      (datasheet http://www.fairchildsemi.com/ds/BC/BC807.pdf)
      (libsource (lib Transistor_BJT) (part BC807) (description "0.8A Ic, 45V Vce, PNP Transistor, SOT-23"))
      (sheetpath (names /) (tstamps /))
      (tstamp 5C9D7AE2))
    (comp (ref R55)
      (value 1k)
      (footprint Resistor_SMD:R_1206_3216Metric_Pad1.42x1.75mm_HandSolder)
      (datasheet ~)
      (libsource (lib Device) (part R) (description Resistor))
      (sheetpath (names /) (tstamps /))
      (tstamp 5C9D7AE9))
    (comp (ref R56)
      (value 1k)
      (footprint Resistor_SMD:R_1206_3216Metric_Pad1.42x1.75mm_HandSolder)
      (datasheet ~)
      (libsource (lib Device) (part R) (description Resistor))
      (sheetpath (names /) (tstamps /))
      (tstamp 5CAD54E8))
    (comp (ref R57)
      (value 1k)
      (footprint Resistor_SMD:R_1206_3216Metric_Pad1.42x1.75mm_HandSolder)
      (datasheet ~)
      (libsource (lib Device) (part R) (description Resistor))
      (sheetpath (names /) (tstamps /))
      (tstamp 5CAD54F7))
    (comp (ref R58)
      (value 1k)
      (footprint Resistor_SMD:R_1206_3216Metric_Pad1.42x1.75mm_HandSolder)
      (datasheet ~)
      (libsource (lib Device) (part R) (description Resistor))
      (sheetpath (names /) (tstamps /))
      (tstamp 5CAD5505))
    (comp (ref R59)
      (value 1k)
      (footprint Resistor_SMD:R_1206_3216Metric_Pad1.42x1.75mm_HandSolder)
      (datasheet ~)
      (libsource (lib Device) (part R) (description Resistor))
      (sheetpath (names /) (tstamps /))
      (tstamp 5CAD5513))
    (comp (ref R60)
      (value 1k)
      (footprint Resistor_SMD:R_1206_3216Metric_Pad1.42x1.75mm_HandSolder)
      (datasheet ~)
      (libsource (lib Device) (part R) (description Resistor))
      (sheetpath (names /) (tstamps /))
      (tstamp 5CAD5521))
    (comp (ref R61)
      (value 1k)
      (footprint Resistor_SMD:R_1206_3216Metric_Pad1.42x1.75mm_HandSolder)
      (datasheet ~)
      (libsource (lib Device) (part R) (description Resistor))
      (sheetpath (names /) (tstamps /))
      (tstamp 5CAD552F))
    (comp (ref R62)
      (value 1k)
      (footprint Resistor_SMD:R_1206_3216Metric_Pad1.42x1.75mm_HandSolder)
      (datasheet ~)
      (libsource (lib Device) (part R) (description Resistor))
      (sheetpath (names /) (tstamps /))
      (tstamp 5CB0D5FA))
    (comp (ref R63)
      (value 1k)
      (footprint Resistor_SMD:R_1206_3216Metric_Pad1.42x1.75mm_HandSolder)
      (datasheet ~)
      (libsource (lib Device) (part R) (description Resistor))
      (sheetpath (names /) (tstamps /))
      (tstamp 5CB0D608))
    (comp (ref Q13)
      (value BC817)
      (footprint Package_TO_SOT_SMD:SOT-23)
      (datasheet http://www.fairchildsemi.com/ds/BC/BC817.pdf)
      (libsource (lib Transistor_BJT) (part BC817) (description "0.8A Ic, 45V Vce, NPN Transistor, SOT-23"))
      (sheetpath (names /) (tstamps /))
      (tstamp 5CB9F9A8))
    (comp (ref Q14)
      (value BC817)
      (footprint Package_TO_SOT_SMD:SOT-23)
      (datasheet http://www.fairchildsemi.com/ds/BC/BC817.pdf)
      (libsource (lib Transistor_BJT) (part BC817) (description "0.8A Ic, 45V Vce, NPN Transistor, SOT-23"))
      (sheetpath (names /) (tstamps /))
      (tstamp 5CB9FB47))
    (comp (ref Q15)
      (value BC817)
      (footprint Package_TO_SOT_SMD:SOT-23)
      (datasheet http://www.fairchildsemi.com/ds/BC/BC817.pdf)
      (libsource (lib Transistor_BJT) (part BC817) (description "0.8A Ic, 45V Vce, NPN Transistor, SOT-23"))
      (sheetpath (names /) (tstamps /))
      (tstamp 5CBDA81E))
    (comp (ref Q16)
      (value BC817)
      (footprint Package_TO_SOT_SMD:SOT-23)
      (datasheet http://www.fairchildsemi.com/ds/BC/BC817.pdf)
      (libsource (lib Transistor_BJT) (part BC817) (description "0.8A Ic, 45V Vce, NPN Transistor, SOT-23"))
      (sheetpath (names /) (tstamps /))
      (tstamp 5CBDA824))
    (comp (ref Q17)
      (value BC817)
      (footprint Package_TO_SOT_SMD:SOT-23)
      (datasheet http://www.fairchildsemi.com/ds/BC/BC817.pdf)
      (libsource (lib Transistor_BJT) (part BC817) (description "0.8A Ic, 45V Vce, NPN Transistor, SOT-23"))
      (sheetpath (names /) (tstamps /))
      (tstamp 5CBF7A9A))
    (comp (ref Q18)
      (value BC817)
      (footprint Package_TO_SOT_SMD:SOT-23)
      (datasheet http://www.fairchildsemi.com/ds/BC/BC817.pdf)
      (libsource (lib Transistor_BJT) (part BC817) (description "0.8A Ic, 45V Vce, NPN Transistor, SOT-23"))
      (sheetpath (names /) (tstamps /))
      (tstamp 5CBF7AA0))
    (comp (ref Q19)
      (value BC817)
      (footprint Package_TO_SOT_SMD:SOT-23)
      (datasheet http://www.fairchildsemi.com/ds/BC/BC817.pdf)
      (libsource (lib Transistor_BJT) (part BC817) (description "0.8A Ic, 45V Vce, NPN Transistor, SOT-23"))
      (sheetpath (names /) (tstamps /))
      (tstamp 5CBF7AA6))
    (comp (ref Q20)
      (value BC817)
      (footprint Package_TO_SOT_SMD:SOT-23)
      (datasheet http://www.fairchildsemi.com/ds/BC/BC817.pdf)
      (libsource (lib Transistor_BJT) (part BC817) (description "0.8A Ic, 45V Vce, NPN Transistor, SOT-23"))
      (sheetpath (names /) (tstamps /))
      (tstamp 5CBF7AAC))
    (comp (ref Q21)
      (value BC807)
      (footprint Package_TO_SOT_SMD:SOT-23)
      (datasheet http://www.fairchildsemi.com/ds/BC/BC807.pdf)
      (libsource (lib Transistor_BJT) (part BC807) (description "0.8A Ic, 45V Vce, PNP Transistor, SOT-23"))
      (sheetpath (names /) (tstamps /))
      (tstamp 5CC6D771))
    (comp (ref R64)
      (value 1k)
      (footprint Resistor_SMD:R_1206_3216Metric_Pad1.42x1.75mm_HandSolder)
      (datasheet ~)
      (libsource (lib Device) (part R) (description Resistor))
      (sheetpath (names /) (tstamps /))
      (tstamp 5CC6D778))
    (comp (ref J7)
      (value z3)
      (footprint Connector_Wire:SolderWirePad_1x01_Drill0.8mm)
      (datasheet ~)
      (libsource (lib Connector) (part Conn_01x01_Female) (description "Generic connector, single row, 01x01, script generated (kicad-library-utils/schlib/autogen/connector/)"))
      (sheetpath (names /) (tstamps /))
      (tstamp 5CBF2674))
    (comp (ref J8)
      (value z3)
      (footprint Connector_Wire:SolderWirePad_1x01_Drill0.8mm)
      (datasheet ~)
      (libsource (lib Connector) (part Conn_01x01_Female) (description "Generic connector, single row, 01x01, script generated (kicad-library-utils/schlib/autogen/connector/)"))
      (sheetpath (names /) (tstamps /))
      (tstamp 5CBF267A))
    (comp (ref U3)
      (value ESP-12F)
      (footprint RF_Module:ESP-12E)
      (datasheet http://wiki.ai-thinker.com/_media/esp8266/esp8266_series_modules_user_manual_v1.1.pdf)
      (libsource (lib RF_Module) (part ESP-12F) (description "802.11 b/g/n Wi-Fi Module"))
      (sheetpath (names /) (tstamps /))
      (tstamp 5CEBB778))
    (comp (ref R68)
      (value 10K)
      (footprint Resistor_SMD:R_0603_1608Metric_Pad1.05x0.95mm_HandSolder)
      (datasheet ~)
      (libsource (lib Device) (part R) (description Resistor))
      (sheetpath (names /) (tstamps /))
      (tstamp 5C8BC6B5))
    (comp (ref R66)
      (value 10K)
      (footprint Resistor_SMD:R_0603_1608Metric_Pad1.05x0.95mm_HandSolder)
      (datasheet ~)
      (libsource (lib Device) (part R) (description Resistor))
      (sheetpath (names /) (tstamps /))
      (tstamp 5C9A70C2))
    (comp (ref R65)
      (value 10K)
      (footprint Resistor_SMD:R_0603_1608Metric_Pad1.05x0.95mm_HandSolder)
      (datasheet ~)
      (libsource (lib Device) (part R) (description Resistor))
      (sheetpath (names /) (tstamps /))
      (tstamp 5CAC461C))
    (comp (ref J10)
      (value z2)
      (footprint Connector_Wire:SolderWirePad_1x01_Drill0.8mm)
      (datasheet ~)
      (libsource (lib Connector) (part Conn_01x01_Female) (description "Generic connector, single row, 01x01, script generated (kicad-library-utils/schlib/autogen/connector/)"))
      (sheetpath (names /) (tstamps /))
      (tstamp 5CBEE280))
    (comp (ref U4)
      (value SSD1306)
      (footprint Displays:ssd1306)
      (libsource (lib ssd1306) (part SSD1306) (description ""))
      (sheetpath (names /) (tstamps /))
      (tstamp 5CC854F9))
    (comp (ref R67)
      (value 1K)
      (footprint Resistor_SMD:R_0603_1608Metric_Pad1.05x0.95mm_HandSolder)
      (datasheet ~)
      (libsource (lib Device) (part R) (description Resistor))
      (sheetpath (names /) (tstamps /))
      (tstamp 5D678A02))
    (comp (ref J11)
      (value z5)
      (footprint Connector_Wire:SolderWirePad_1x01_Drill0.8mm)
      (datasheet ~)
      (libsource (lib Connector) (part Conn_01x01_Female) (description "Generic connector, single row, 01x01, script generated (kicad-library-utils/schlib/autogen/connector/)"))
      (sheetpath (names /) (tstamps /))
      (tstamp 5D6DFF30))
    (comp (ref J12)
      (value z5)
      (footprint Connector_Wire:SolderWirePad_1x01_Drill0.8mm)
      (datasheet ~)
      (libsource (lib Connector) (part Conn_01x01_Female) (description "Generic connector, single row, 01x01, script generated (kicad-library-utils/schlib/autogen/connector/)"))
      (sheetpath (names /) (tstamps /))
      (tstamp 5D6DFF36))
    (comp (ref R77)
      (value 100)
      (footprint Resistor_SMD:R_1206_3216Metric_Pad1.42x1.75mm_HandSolder)
      (datasheet ~)
      (libsource (lib Device) (part R) (description Resistor))
      (sheetpath (names /) (tstamps /))
      (tstamp 5C942FA9))
    (comp (ref R75)
      (value 10k)
      (footprint Resistor_SMD:R_1206_3216Metric_Pad1.42x1.75mm_HandSolder)
      (datasheet ~)
      (libsource (lib Device) (part R) (description Resistor))
      (sheetpath (names /) (tstamps /))
      (tstamp 5CB89B53))
    (comp (ref L1)
      (value 100uH)
      (footprint Inductor_THT:L_Radial_D6.0mm_P4.00mm)
      (datasheet ~)
      (libsource (lib Device) (part L) (description Inductor))
      (sheetpath (names /) (tstamps /))
      (tstamp 5CDE0949))
    (comp (ref D1)
      (value 1N5819)
      (footprint Diode_SMD:D_MELF)
      (datasheet ~)
      (libsource (lib Device) (part D_Schottky) (description "Schottky diode"))
      (sheetpath (names /) (tstamps /))
      (tstamp 5CE994E2))
    (comp (ref C6)
      (value 47uF)
      (footprint Capacitor_THT:CP_Radial_D5.0mm_P2.50mm)
      (datasheet ~)
      (libsource (lib Device) (part CP) (description "Polarized capacitor"))
      (sheetpath (names /) (tstamps /))
      (tstamp 5CF146E0))
    (comp (ref R78)
      (value 100)
      (footprint Resistor_SMD:R_1206_3216Metric_Pad1.42x1.75mm_HandSolder)
      (datasheet ~)
      (libsource (lib Device) (part R) (description Resistor))
      (sheetpath (names /) (tstamps /))
      (tstamp 5D2B42EC))
    (comp (ref R76)
      (value 10k)
      (footprint Resistor_SMD:R_1206_3216Metric_Pad1.42x1.75mm_HandSolder)
      (datasheet ~)
      (libsource (lib Device) (part R) (description Resistor))
      (sheetpath (names /) (tstamps /))
      (tstamp 5D2B42F5))
    (comp (ref L2)
      (value 100uH)
      (footprint Inductor_THT:L_Radial_D6.0mm_P4.00mm)
      (datasheet ~)
      (libsource (lib Device) (part L) (description Inductor))
      (sheetpath (names /) (tstamps /))
      (tstamp 5D2B42FD))
    (comp (ref D2)
      (value 1N5819)
      (footprint Diode_SMD:D_MELF)
      (datasheet ~)
      (libsource (lib Device) (part D_Schottky) (description "Schottky diode"))
      (sheetpath (names /) (tstamps /))
      (tstamp 5D2B430B))
    (comp (ref C7)
      (value 47uF)
      (footprint Capacitor_THT:CP_Radial_D5.0mm_P2.50mm)
      (datasheet ~)
      (libsource (lib Device) (part CP) (description "Polarized capacitor"))
      (sheetpath (names /) (tstamps /))
      (tstamp 5D2B4311))
    (comp (ref R74)
      (value 1)
      (footprint Resistor_SMD:R_1206_3216Metric_Pad1.42x1.75mm_HandSolder)
      (datasheet ~)
      (libsource (lib Device) (part R) (description Resistor))
      (sheetpath (names /) (tstamps /))
      (tstamp 5D5495F3))
    (comp (ref R72)
      (value 11k)
      (footprint Resistor_SMD:R_1206_3216Metric_Pad1.42x1.75mm_HandSolder)
      (datasheet ~)
      (libsource (lib Device) (part R) (description Resistor))
      (sheetpath (names /) (tstamps /))
      (tstamp 5D5D0E3B))
    (comp (ref R73)
      (value 2k2)
      (footprint Resistor_SMD:R_1206_3216Metric_Pad1.42x1.75mm_HandSolder)
      (datasheet ~)
      (libsource (lib Device) (part R) (description Resistor))
      (sheetpath (names /) (tstamps /))
      (tstamp 5D5D1C4F))
    (comp (ref R70)
      (value 11k)
      (footprint Resistor_SMD:R_1206_3216Metric_Pad1.42x1.75mm_HandSolder)
      (datasheet ~)
      (libsource (lib Device) (part R) (description Resistor))
      (sheetpath (names /) (tstamps /))
      (tstamp 5D7E94D8))
    (comp (ref R71)
      (value 2k2)
      (footprint Resistor_SMD:R_1206_3216Metric_Pad1.42x1.75mm_HandSolder)
      (datasheet ~)
      (libsource (lib Device) (part R) (description Resistor))
      (sheetpath (names /) (tstamps /))
      (tstamp 5D7E94DE))
    (comp (ref J13)
      (value z5)
      (footprint Connector_Wire:SolderWirePad_1x01_Drill0.8mm)
      (datasheet ~)
      (libsource (lib Connector) (part Conn_01x01_Female) (description "Generic connector, single row, 01x01, script generated (kicad-library-utils/schlib/autogen/connector/)"))
      (sheetpath (names /) (tstamps /))
      (tstamp 5D2C00F4))
    (comp (ref J14)
      (value z5)
      (footprint Connector_Wire:SolderWirePad_1x01_Drill0.8mm)
      (datasheet ~)
      (libsource (lib Connector) (part Conn_01x01_Female) (description "Generic connector, single row, 01x01, script generated (kicad-library-utils/schlib/autogen/connector/)"))
      (sheetpath (names /) (tstamps /))
      (tstamp 5D2C00FA))
    (comp (ref SW1)
      (value up)
      (footprint Button_Switch_THT:SW_PUSH_6mm)
      (libsource (lib Switch) (part SW_Push) (description "Push button switch, generic, two pins"))
      (sheetpath (names /) (tstamps /))
      (tstamp 5D398F3E))
    (comp (ref SW2)
      (value down)
      (footprint Button_Switch_THT:SW_PUSH_6mm)
      (libsource (lib Switch) (part SW_Push) (description "Push button switch, generic, two pins"))
      (sheetpath (names /) (tstamps /))
      (tstamp 5D3995B6))
    (comp (ref SW3)
      (value enter)
      (footprint Button_Switch_THT:SW_PUSH_6mm)
      (libsource (lib Switch) (part SW_Push) (description "Push button switch, generic, two pins"))
      (sheetpath (names /) (tstamps /))
      (tstamp 5D399777))
    (comp (ref C8)
      (value 100nF)
      (footprint Capacitor_SMD:C_0805_2012Metric_Pad1.15x1.40mm_HandSolder)
      (datasheet ~)
      (libsource (lib Device) (part C) (description "Unpolarized capacitor"))
      (sheetpath (names /) (tstamps /))
      (tstamp 5D87DCA9))
    (comp (ref C9)
      (value 100nF)
      (footprint Capacitor_SMD:C_0805_2012Metric_Pad1.15x1.40mm_HandSolder)
      (datasheet ~)
      (libsource (lib Device) (part C) (description "Unpolarized capacitor"))
      (sheetpath (names /) (tstamps /))
      (tstamp 5D87E5D8))
    (comp (ref J15)
      (value z1)
      (footprint Connector_Wire:SolderWirePad_1x01_Drill0.8mm)
      (datasheet ~)
      (libsource (lib Connector) (part Conn_01x01_Female) (description "Generic connector, single row, 01x01, script generated (kicad-library-utils/schlib/autogen/connector/)"))
      (sheetpath (names /) (tstamps /))
      (tstamp 5E03DCF5))
    (comp (ref J16)
      (value z1)
      (footprint Connector_Wire:SolderWirePad_1x01_Drill0.8mm)
      (datasheet ~)
      (libsource (lib Connector) (part Conn_01x01_Female) (description "Generic connector, single row, 01x01, script generated (kicad-library-utils/schlib/autogen/connector/)"))
      (sheetpath (names /) (tstamps /))
      (tstamp 5E03DCFB))
    (comp (ref C10)
      (value 100nF)
      (footprint Capacitor_SMD:C_0805_2012Metric_Pad1.15x1.40mm_HandSolder)
      (datasheet ~)
      (libsource (lib Device) (part C) (description "Unpolarized capacitor"))
      (sheetpath (names /) (tstamps /))
      (tstamp 5E38D65A))
    (comp (ref C11)
      (value 100nF)
      (footprint Capacitor_SMD:C_0805_2012Metric_Pad1.15x1.40mm_HandSolder)
      (datasheet ~)
      (libsource (lib Device) (part C) (description "Unpolarized capacitor"))
      (sheetpath (names /) (tstamps /))
      (tstamp 5E42A37F))
    (comp (ref J17)
      (value pc)
      (footprint Connector_Wire:SolderWirePad_1x01_Drill0.8mm)
      (datasheet ~)
      (libsource (lib Connector) (part Conn_01x01_Female) (description "Generic connector, single row, 01x01, script generated (kicad-library-utils/schlib/autogen/connector/)"))
      (sheetpath (names /) (tstamps /))
      (tstamp 5C91AF10))
    (comp (ref R81)
      (value 220)
      (footprint Resistor_SMD:R_0603_1608Metric_Pad1.05x0.95mm_HandSolder)
      (datasheet ~)
      (libsource (lib Device) (part R) (description Resistor))
      (sheetpath (names /) (tstamps /))
      (tstamp 5C96DAE0))
    (comp (ref R82)
      (value 220)
      (footprint Resistor_SMD:R_0603_1608Metric_Pad1.05x0.95mm_HandSolder)
      (datasheet ~)
      (libsource (lib Device) (part R) (description Resistor))
      (sheetpath (names /) (tstamps /))
      (tstamp 5C9BCDDF))
    (comp (ref D3)
      (value RED)
      (footprint Diode_SMD:D_0603_1608Metric_Pad1.05x0.95mm_HandSolder)
      (datasheet ~)
      (libsource (lib Device) (part LED) (description "Light emitting diode"))
      (sheetpath (names /) (tstamps /))
      (tstamp 5CAA9AFE))
    (comp (ref D4)
      (value GREEN)
      (footprint Diode_SMD:D_0603_1608Metric_Pad1.05x0.95mm_HandSolder)
      (datasheet ~)
      (libsource (lib Device) (part LED) (description "Light emitting diode"))
      (sheetpath (names /) (tstamps /))
      (tstamp 5CAAA382))
    (comp (ref J20)
      (value g4)
      (footprint Connector_Wire:SolderWirePad_1x01_Drill0.8mm)
      (datasheet ~)
      (libsource (lib Connector) (part Conn_01x01_Female) (description "Generic connector, single row, 01x01, script generated (kicad-library-utils/schlib/autogen/connector/)"))
      (sheetpath (names /) (tstamps /))
      (tstamp 5CFBDA91))
    (comp (ref J21)
      (value g5)
      (footprint Connector_Wire:SolderWirePad_1x01_Drill0.8mm)
      (datasheet ~)
      (libsource (lib Connector) (part Conn_01x01_Female) (description "Generic connector, single row, 01x01, script generated (kicad-library-utils/schlib/autogen/connector/)"))
      (sheetpath (names /) (tstamps /))
      (tstamp 5CFBF1E4))
    (comp (ref J19)
      (value g3)
      (footprint Connector_Wire:SolderWirePad_1x01_Drill0.8mm)
      (datasheet ~)
      (libsource (lib Connector) (part Conn_01x01_Female) (description "Generic connector, single row, 01x01, script generated (kicad-library-utils/schlib/autogen/connector/)"))
      (sheetpath (names /) (tstamps /))
      (tstamp 5D062B3A))
    (comp (ref J18)
      (value g1)
      (footprint Connector_Wire:SolderWirePad_1x01_Drill0.8mm)
      (datasheet ~)
      (libsource (lib Connector) (part Conn_01x01_Female) (description "Generic connector, single row, 01x01, script generated (kicad-library-utils/schlib/autogen/connector/)"))
      (sheetpath (names /) (tstamps /))
      (tstamp 5D062B34))
    (comp (ref J22)
      (value g2)
      (footprint Connector_Wire:SolderWirePad_1x01_Drill0.8mm)
      (datasheet ~)
      (libsource (lib Connector) (part Conn_01x01_Female) (description "Generic connector, single row, 01x01, script generated (kicad-library-utils/schlib/autogen/connector/)"))
      (sheetpath (names /) (tstamps /))
      (tstamp 5D25608D))
    (comp (ref J23)
      (value gndd)
      (footprint Connector_Wire:SolderWirePad_1x01_Drill0.8mm)
      (datasheet ~)
      (libsource (lib Connector) (part Conn_01x01_Female) (description "Generic connector, single row, 01x01, script generated (kicad-library-utils/schlib/autogen/connector/)"))
      (sheetpath (names /) (tstamps /))
      (tstamp 5D4F1E1C))
    (comp (ref J9)
      (value JTAG)
      (footprint Connector_PinHeader_2.54mm:PinHeader_2x05_P2.54mm_Vertical)
      (datasheet ~)
      (libsource (lib Connector_Generic) (part Conn_02x05_Odd_Even) (description "Generic connector, double row, 02x05, odd/even pin numbering scheme (row 1 odd numbers, row 2 even numbers), script generated (kicad-library-utils/schlib/autogen/connector/)"))
      (sheetpath (names /) (tstamps /))
      (tstamp 5C97E749))
    (comp (ref R83)
      (value 220)
      (footprint Resistor_SMD:R_0603_1608Metric_Pad1.05x0.95mm_HandSolder)
      (datasheet ~)
      (libsource (lib Device) (part R) (description Resistor))
      (sheetpath (names /) (tstamps /))
      (tstamp 5C9876BD))
    (comp (ref R84)
      (value 220)
      (footprint Resistor_SMD:R_0603_1608Metric_Pad1.05x0.95mm_HandSolder)
      (datasheet ~)
      (libsource (lib Device) (part R) (description Resistor))
      (sheetpath (names /) (tstamps /))
      (tstamp 5CA3C90B))
    (comp (ref R85)
      (value 220)
      (footprint Resistor_SMD:R_0603_1608Metric_Pad1.05x0.95mm_HandSolder)
      (datasheet ~)
      (libsource (lib Device) (part R) (description Resistor))
      (sheetpath (names /) (tstamps /))
      (tstamp 5CA96C27))
    (comp (ref R86)
      (value 220)
      (footprint Resistor_SMD:R_0603_1608Metric_Pad1.05x0.95mm_HandSolder)
      (datasheet ~)
      (libsource (lib Device) (part R) (description Resistor))
      (sheetpath (names /) (tstamps /))
      (tstamp 5CAF0D66))
    (comp (ref R87)
      (value 220)
      (footprint Resistor_SMD:R_0603_1608Metric_Pad1.05x0.95mm_HandSolder)
      (datasheet ~)
      (libsource (lib Device) (part R) (description Resistor))
      (sheetpath (names /) (tstamps /))
      (tstamp 5CB4ACD8))
    (comp (ref R88)
      (value 220)
      (footprint Resistor_SMD:R_0603_1608Metric_Pad1.05x0.95mm_HandSolder)
      (datasheet ~)
      (libsource (lib Device) (part R) (description Resistor))
      (sheetpath (names /) (tstamps /))
      (tstamp 5CBA4F29))
    (comp (ref R89)
      (value 220)
      (footprint Resistor_SMD:R_0603_1608Metric_Pad1.05x0.95mm_HandSolder)
      (datasheet ~)
      (libsource (lib Device) (part R) (description Resistor))
      (sheetpath (names /) (tstamps /))
      (tstamp 5CBA4F2F))
    (comp (ref J26)
      (value z4)
      (footprint Connector_Wire:SolderWirePad_1x01_Drill0.8mm)
      (datasheet ~)
      (libsource (lib Connector) (part Conn_01x01_Female) (description "Generic connector, single row, 01x01, script generated (kicad-library-utils/schlib/autogen/connector/)"))
      (sheetpath (names /) (tstamps /))
      (tstamp 5C9EBDAA))
    (comp (ref J27)
      (value z4)
      (footprint Connector_Wire:SolderWirePad_1x01_Drill0.8mm)
      (datasheet ~)
      (libsource (lib Connector) (part Conn_01x01_Female) (description "Generic connector, single row, 01x01, script generated (kicad-library-utils/schlib/autogen/connector/)"))
      (sheetpath (names /) (tstamps /))
      (tstamp 5C9EBDB0))
    (comp (ref J25)
      (value z4)
      (footprint Connector_Wire:SolderWirePad_1x01_Drill0.8mm)
      (datasheet ~)
      (libsource (lib Connector) (part Conn_01x01_Female) (description "Generic connector, single row, 01x01, script generated (kicad-library-utils/schlib/autogen/connector/)"))
      (sheetpath (names /) (tstamps /))
      (tstamp 5CAA8CA7))
    (comp (ref J24)
      (value z4)
      (footprint Connector_Wire:SolderWirePad_1x01_Drill0.8mm)
      (datasheet ~)
      (libsource (lib Connector) (part Conn_01x01_Female) (description "Generic connector, single row, 01x01, script generated (kicad-library-utils/schlib/autogen/connector/)"))
      (sheetpath (names /) (tstamps /))
      (tstamp 5CAA8CAD))
    (comp (ref Q23)
      (value IRFL024Z)
      (footprint Package_TO_SOT_SMD:SOT-223)
      (datasheet ~)
      (libsource (lib Device) (part Q_NMOS_GDSD) (description "N-MOSFET transistor, gate/drain/source, drain connected to mounting plane"))
      (sheetpath (names /) (tstamps /))
      (tstamp 5CA6DE6F))
    (comp (ref Q22)
      (value IRFL024Z)
      (footprint Package_TO_SOT_SMD:SOT-223)
      (datasheet ~)
      (libsource (lib Device) (part Q_NMOS_GDSD) (description "N-MOSFET transistor, gate/drain/source, drain connected to mounting plane"))
      (sheetpath (names /) (tstamps /))
      (tstamp 5CB2D6CB))
    (comp (ref Q24)
      (value Q_PMOS_GDSD)
      (footprint Package_TO_SOT_SMD:SOT-223)
      (datasheet ~)
      (libsource (lib Device) (part Q_PMOS_GDSD) (description "P-MOSFET transistor, gate/drain/source, drain connected to mounting plane"))
      (sheetpath (names /) (tstamps /))
      (tstamp 5CAA57AE))
    (comp (ref R90)
      (value 100)
      (footprint Resistor_SMD:R_1206_3216Metric_Pad1.42x1.75mm_HandSolder)
      (datasheet ~)
      (libsource (lib Device) (part R) (description Resistor))
      (sheetpath (names /) (tstamps /))
      (tstamp 5CC21256))
    (comp (ref R91)
      (value 10k)
      (footprint Resistor_SMD:R_1206_3216Metric_Pad1.42x1.75mm_HandSolder)
      (datasheet ~)
      (libsource (lib Device) (part R) (description Resistor))
      (sheetpath (names /) (tstamps /))
      (tstamp 5CC2156C))
    (comp (ref J28)
      (value "Power control")
      (footprint Connector_Wire:SolderWirePad_1x01_Drill0.8mm)
      (datasheet ~)
      (libsource (lib Connector) (part Conn_01x01_Female) (description "Generic connector, single row, 01x01, script generated (kicad-library-utils/schlib/autogen/connector/)"))
      (sheetpath (names /) (tstamps /))
      (tstamp 5CE05B8A))
    (comp (ref C13)
      (value 100nF)
      (footprint Capacitor_SMD:C_1206_3216Metric_Pad1.42x1.75mm_HandSolder)
      (datasheet ~)
      (libsource (lib Device) (part C) (description "Unpolarized capacitor"))
      (sheetpath (names /) (tstamps /))
      (tstamp 5CE0B0BE))
    (comp (ref C12)
      (value 10uF)
      (footprint Capacitor_SMD:C_1206_3216Metric_Pad1.42x1.75mm_HandSolder)
      (datasheet ~)
      (libsource (lib Device) (part CP) (description "Polarized capacitor"))
      (sheetpath (names /) (tstamps /))
      (tstamp 5CE0B329))
    (comp (ref C14)
      (value 10uF)
      (footprint Capacitor_SMD:C_1206_3216Metric_Pad1.42x1.75mm_HandSolder)
      (datasheet ~)
      (libsource (lib Device) (part CP) (description "Polarized capacitor"))
      (sheetpath (names /) (tstamps /))
      (tstamp 5D057E9D))
    (comp (ref C15)
      (value 100nF)
      (footprint Capacitor_SMD:C_0805_2012Metric_Pad1.15x1.40mm_HandSolder)
      (datasheet ~)
      (libsource (lib Device) (part C) (description "Unpolarized capacitor"))
      (sheetpath (names /) (tstamps /))
      (tstamp 5D0BDDAF))
    (comp (ref J29)
      (value "ext power")
      (footprint Connector_PinHeader_2.54mm:PinHeader_1x02_P2.54mm_Vertical)
      (datasheet ~)
      (libsource (lib Connector) (part Conn_01x02_Female) (description "Generic connector, single row, 01x02, script generated (kicad-library-utils/schlib/autogen/connector/)"))
      (sheetpath (names /) (tstamps /))
      (tstamp 5D49915D))
    (comp (ref J32)
      (value z5)
      (footprint Connector_Wire:SolderWirePad_1x01_Drill0.8mm)
      (datasheet ~)
      (libsource (lib Connector) (part Conn_01x01_Female) (description "Generic connector, single row, 01x01, script generated (kicad-library-utils/schlib/autogen/connector/)"))
      (sheetpath (names /) (tstamps /))
      (tstamp 5D62A862))
    (comp (ref J33)
      (value z5)
      (footprint Connector_Wire:SolderWirePad_1x01_Drill0.8mm)
      (datasheet ~)
      (libsource (lib Connector) (part Conn_01x01_Female) (description "Generic connector, single row, 01x01, script generated (kicad-library-utils/schlib/autogen/connector/)"))
      (sheetpath (names /) (tstamps /))
      (tstamp 5D62A868))
    (comp (ref J30)
      (value z5)
      (footprint Connector_Wire:SolderWirePad_1x01_Drill0.8mm)
      (datasheet ~)
      (libsource (lib Connector) (part Conn_01x01_Female) (description "Generic connector, single row, 01x01, script generated (kicad-library-utils/schlib/autogen/connector/)"))
      (sheetpath (names /) (tstamps /))
      (tstamp 5D68DC66))
    (comp (ref J31)
      (value z5)
      (footprint Connector_Wire:SolderWirePad_1x01_Drill0.8mm)
      (datasheet ~)
      (libsource (lib Connector) (part Conn_01x01_Female) (description "Generic connector, single row, 01x01, script generated (kicad-library-utils/schlib/autogen/connector/)"))
      (sheetpath (names /) (tstamps /))
      (tstamp 5D68DC6C))
    (comp (ref J34)
      (value +5V)
      (footprint Connector_Wire:SolderWirePad_1x01_Drill0.8mm)
      (datasheet ~)
      (libsource (lib Connector) (part Conn_01x01_Female) (description "Generic connector, single row, 01x01, script generated (kicad-library-utils/schlib/autogen/connector/)"))
      (sheetpath (names /) (tstamps /))
      (tstamp 5CAADCB2))
    (comp (ref J35)
      (value GND)
      (footprint Connector_Wire:SolderWirePad_1x01_Drill0.8mm)
      (datasheet ~)
      (libsource (lib Connector) (part Conn_01x01_Female) (description "Generic connector, single row, 01x01, script generated (kicad-library-utils/schlib/autogen/connector/)"))
      (sheetpath (names /) (tstamps /))
      (tstamp 5CAADCB8))
    (comp (ref J36)
      (value +5V)
      (footprint Connector_Wire:SolderWirePad_1x01_Drill0.8mm)
      (datasheet ~)
      (libsource (lib Connector) (part Conn_01x01_Female) (description "Generic connector, single row, 01x01, script generated (kicad-library-utils/schlib/autogen/connector/)"))
      (sheetpath (names /) (tstamps /))
      (tstamp 5CAC8084))
    (comp (ref R79)
      (value 10k)
      (footprint Resistor_SMD:R_1206_3216Metric_Pad1.42x1.75mm_HandSolder)
      (datasheet ~)
      (libsource (lib Device) (part R) (description Resistor))
      (sheetpath (names /) (tstamps /))
      (tstamp 5CB32621))
    (comp (ref R80)
      (value 10k)
      (footprint Resistor_SMD:R_0603_1608Metric_Pad1.05x0.95mm_HandSolder)
      (datasheet ~)
      (libsource (lib Device) (part R) (description Resistor))
      (sheetpath (names /) (tstamps /))
      (tstamp 5CB33DA6))
    (comp (ref U5)
      (value AMS1117-3.3)
      (footprint Package_TO_SOT_SMD:SOT-223-3_TabPin2)
      (datasheet http://www.advanced-monolithic.com/pdf/ds1117.pdf)
      (libsource (lib Regulator_Linear) (part AMS1117-3.3) (description "1A Low Dropout regulator, positive, 3.3V fixed output, SOT-223"))
      (sheetpath (names /) (tstamps /))
      (tstamp 5CD33FFC))
    (comp (ref C16)
      (value 100nF)
      (footprint Capacitor_SMD:C_1206_3216Metric_Pad1.42x1.75mm_HandSolder)
      (datasheet ~)
      (libsource (lib Device) (part C) (description "Unpolarized capacitor"))
      (sheetpath (names /) (tstamps /))
      (tstamp 5CED758F))
    (comp (ref J37)
      (value z5)
      (footprint Connector_Wire:SolderWirePad_1x01_Drill0.8mm)
      (datasheet ~)
      (libsource (lib Connector) (part Conn_01x01_Female) (description "Generic connector, single row, 01x01, script generated (kicad-library-utils/schlib/autogen/connector/)"))
      (sheetpath (names /) (tstamps /))
      (tstamp 5D8D13C2))
    (comp (ref J38)
      (value z5)
      (footprint Connector_Wire:SolderWirePad_1x01_Drill0.8mm)
      (datasheet ~)
      (libsource (lib Connector) (part Conn_01x01_Female) (description "Generic connector, single row, 01x01, script generated (kicad-library-utils/schlib/autogen/connector/)"))
      (sheetpath (names /) (tstamps /))
      (tstamp 5D8D13C8))
    (comp (ref J39)
      (value erst)
      (footprint Connector_Wire:SolderWirePad_1x01_Drill0.8mm)
      (datasheet ~)
      (libsource (lib Connector) (part Conn_01x01_Female) (description "Generic connector, single row, 01x01, script generated (kicad-library-utils/schlib/autogen/connector/)"))
      (sheetpath (names /) (tstamps /))
      (tstamp 5DBBDCE2))
    (comp (ref J40)
      (value erst)
      (footprint Connector_Wire:SolderWirePad_1x01_Drill0.8mm)
      (datasheet ~)
      (libsource (lib Connector) (part Conn_01x01_Female) (description "Generic connector, single row, 01x01, script generated (kicad-library-utils/schlib/autogen/connector/)"))
      (sheetpath (names /) (tstamps /))
      (tstamp 5DBBDCE8)))
  (libparts
    (libpart (lib Connector) (part Conn_01x01_Female)
      (description "Generic connector, single row, 01x01, script generated (kicad-library-utils/schlib/autogen/connector/)")
      (docs ~)
      (footprints
        (fp Connector*:*))
      (fields
        (field (name Reference) J)
        (field (name Value) Conn_01x01_Female))
      (pins
        (pin (num 1) (name Pin_1) (type passive))))
    (libpart (lib Connector) (part Conn_01x02_Female)
      (description "Generic connector, single row, 01x02, script generated (kicad-library-utils/schlib/autogen/connector/)")
      (docs ~)
      (footprints
        (fp Connector*:*_1x??_*))
      (fields
        (field (name Reference) J)
        (field (name Value) Conn_01x02_Female))
      (pins
        (pin (num 1) (name Pin_1) (type passive))
        (pin (num 2) (name Pin_2) (type passive))))
    (libpart (lib Connector_Generic) (part Conn_02x05_Odd_Even)
      (description "Generic connector, double row, 02x05, odd/even pin numbering scheme (row 1 odd numbers, row 2 even numbers), script generated (kicad-library-utils/schlib/autogen/connector/)")
      (docs ~)
      (footprints
        (fp Connector*:*_2x??_*))
      (fields
        (field (name Reference) J)
        (field (name Value) Conn_02x05_Odd_Even))
      (pins
        (pin (num 1) (name Pin_1) (type passive))
        (pin (num 2) (name Pin_2) (type passive))
        (pin (num 3) (name Pin_3) (type passive))
        (pin (num 4) (name Pin_4) (type passive))
        (pin (num 5) (name Pin_5) (type passive))
        (pin (num 6) (name Pin_6) (type passive))
        (pin (num 7) (name Pin_7) (type passive))
        (pin (num 8) (name Pin_8) (type passive))
        (pin (num 9) (name Pin_9) (type passive))
        (pin (num 10) (name Pin_10) (type passive))))
    (libpart (lib Connector_Generic) (part Conn_02x20_Counter_Clockwise)
      (description "Generic connector, double row, 02x20, counter clockwise pin numbering scheme (similar to DIP packge numbering), script generated (kicad-library-utils/schlib/autogen/connector/)")
      (docs ~)
      (footprints
        (fp Connector*:*_2x??_*))
      (fields
        (field (name Reference) J)
        (field (name Value) Conn_02x20_Counter_Clockwise))
      (pins
        (pin (num 1) (name Pin_1) (type passive))
        (pin (num 2) (name Pin_2) (type passive))
        (pin (num 3) (name Pin_3) (type passive))
        (pin (num 4) (name Pin_4) (type passive))
        (pin (num 5) (name Pin_5) (type passive))
        (pin (num 6) (name Pin_6) (type passive))
        (pin (num 7) (name Pin_7) (type passive))
        (pin (num 8) (name Pin_8) (type passive))
        (pin (num 9) (name Pin_9) (type passive))
        (pin (num 10) (name Pin_10) (type passive))
        (pin (num 11) (name Pin_11) (type passive))
        (pin (num 12) (name Pin_12) (type passive))
        (pin (num 13) (name Pin_13) (type passive))
        (pin (num 14) (name Pin_14) (type passive))
        (pin (num 15) (name Pin_15) (type passive))
        (pin (num 16) (name Pin_16) (type passive))
        (pin (num 17) (name Pin_17) (type passive))
        (pin (num 18) (name Pin_18) (type passive))
        (pin (num 19) (name Pin_19) (type passive))
        (pin (num 20) (name Pin_20) (type passive))
        (pin (num 21) (name Pin_21) (type passive))
        (pin (num 22) (name Pin_22) (type passive))
        (pin (num 23) (name Pin_23) (type passive))
        (pin (num 24) (name Pin_24) (type passive))
        (pin (num 25) (name Pin_25) (type passive))
        (pin (num 26) (name Pin_26) (type passive))
        (pin (num 27) (name Pin_27) (type passive))
        (pin (num 28) (name Pin_28) (type passive))
        (pin (num 29) (name Pin_29) (type passive))
        (pin (num 30) (name Pin_30) (type passive))
        (pin (num 31) (name Pin_31) (type passive))
        (pin (num 32) (name Pin_32) (type passive))
        (pin (num 33) (name Pin_33) (type passive))
        (pin (num 34) (name Pin_34) (type passive))
        (pin (num 35) (name Pin_35) (type passive))
        (pin (num 36) (name Pin_36) (type passive))
        (pin (num 37) (name Pin_37) (type passive))
        (pin (num 38) (name Pin_38) (type passive))
        (pin (num 39) (name Pin_39) (type passive))
        (pin (num 40) (name Pin_40) (type passive))))
    (libpart (lib Device) (part C)
      (description "Unpolarized capacitor")
      (docs ~)
      (footprints
        (fp C_*))
      (fields
        (field (name Reference) C)
        (field (name Value) C))
      (pins
        (pin (num 1) (name ~) (type passive))
        (pin (num 2) (name ~) (type passive))))
    (libpart (lib Device) (part CP)
      (description "Polarized capacitor")
      (docs ~)
      (footprints
        (fp CP_*))
      (fields
        (field (name Reference) C)
        (field (name Value) CP))
      (pins
        (pin (num 1) (name ~) (type passive))
        (pin (num 2) (name ~) (type passive))))
    (libpart (lib Device) (part Crystal_Small)
      (description "Two pin crystal, small symbol")
      (docs ~)
      (footprints
        (fp Crystal*))
      (fields
        (field (name Reference) Y)
        (field (name Value) Crystal_Small))
      (pins
        (pin (num 1) (name 1) (type passive))
        (pin (num 2) (name 2) (type passive))))
    (libpart (lib Device) (part D_Schottky)
      (description "Schottky diode")
      (docs ~)
      (footprints
        (fp TO-???*)
        (fp *_Diode_*)
        (fp *SingleDiode*)
        (fp D_*))
      (fields
        (field (name Reference) D)
        (field (name Value) D_Schottky))
      (pins
        (pin (num 1) (name K) (type passive))
        (pin (num 2) (name A) (type passive))))
    (libpart (lib Device) (part L)
      (description Inductor)
      (docs ~)
      (footprints
        (fp Choke_*)
        (fp *Coil*)
        (fp Inductor_*)
        (fp L_*))
      (fields
        (field (name Reference) L)
        (field (name Value) L))
      (pins
        (pin (num 1) (name 1) (type passive))
        (pin (num 2) (name 2) (type passive))))
    (libpart (lib Device) (part LED)
      (description "Light emitting diode")
      (docs ~)
      (footprints
        (fp LED*)
        (fp LED_SMD:*)
        (fp LED_THT:*))
      (fields
        (field (name Reference) D)
        (field (name Value) LED))
      (pins
        (pin (num 1) (name K) (type passive))
        (pin (num 2) (name A) (type passive))))
    (libpart (lib Device) (part Q_NMOS_GDSD)
      (description "N-MOSFET transistor, gate/drain/source, drain connected to mounting plane")
      (docs ~)
      (fields
        (field (name Reference) Q)
        (field (name Value) Q_NMOS_GDSD))
      (pins
        (pin (num 1) (name G) (type input))
        (pin (num 2) (name D) (type passive))
        (pin (num 3) (name S) (type passive))
        (pin (num 4) (name D) (type passive))))
    (libpart (lib Device) (part Q_PMOS_GDSD)
      (description "P-MOSFET transistor, gate/drain/source, drain connected to mounting plane")
      (docs ~)
      (fields
        (field (name Reference) Q)
        (field (name Value) Q_PMOS_GDSD))
      (pins
        (pin (num 1) (name G) (type input))
        (pin (num 2) (name D) (type passive))
        (pin (num 3) (name S) (type passive))
        (pin (num 4) (name D) (type passive))))
    (libpart (lib Device) (part R)
      (description Resistor)
      (docs ~)
      (footprints
        (fp R_*))
      (fields
        (field (name Reference) R)
        (field (name Value) R))
      (pins
        (pin (num 1) (name ~) (type passive))
        (pin (num 2) (name ~) (type passive))))
    (libpart (lib MCU_Microchip_ATmega) (part ATmega64L-8AU)
      (aliases
        (alias ATmega64-16AU)
        (alias ATmega64A-AU)
        (alias ATmega128L-8AU)
        (alias ATmega128-16AU)
        (alias ATmega128A-AU))
      (description "8MHz, 64kB Flash, 4kB SRAM, 2kB EEPROM, TQFP-64")
      (docs http://ww1.microchip.com/downloads/en/DeviceDoc/atmel-2490-8-bit-avr-microcontroller-atmega64-l_datasheet.pdf)
      (footprints
        (fp TQFP*14x14mm*P0.8mm*))
      (fields
        (field (name Reference) U)
        (field (name Value) ATmega64L-8AU)
        (field (name Footprint) Package_QFP:TQFP-64_14x14mm_P0.8mm))
      (pins
        (pin (num 1) (name ~PEN) (type input))
        (pin (num 2) (name PE0) (type 3state))
        (pin (num 3) (name PE1) (type 3state))
        (pin (num 4) (name PE2) (type 3state))
        (pin (num 5) (name PE3) (type 3state))
        (pin (num 6) (name PE4) (type 3state))
        (pin (num 7) (name PE5) (type 3state))
        (pin (num 8) (name PE6) (type 3state))
        (pin (num 9) (name PE7) (type 3state))
        (pin (num 10) (name PB0) (type 3state))
        (pin (num 11) (name PB1) (type 3state))
        (pin (num 12) (name PB2) (type 3state))
        (pin (num 13) (name PB3) (type 3state))
        (pin (num 14) (name PB4) (type 3state))
        (pin (num 15) (name PB5) (type 3state))
        (pin (num 16) (name PB6) (type 3state))
        (pin (num 17) (name PB7) (type 3state))
        (pin (num 18) (name PG3) (type 3state))
        (pin (num 19) (name PG4) (type 3state))
        (pin (num 20) (name ~RESET) (type input))
        (pin (num 21) (name VCC) (type power_in))
        (pin (num 22) (name GND) (type power_in))
        (pin (num 23) (name XTAL2) (type output))
        (pin (num 24) (name XTAL1) (type input))
        (pin (num 25) (name PD0) (type 3state))
        (pin (num 26) (name PD1) (type 3state))
        (pin (num 27) (name PD2) (type 3state))
        (pin (num 28) (name PD3) (type 3state))
        (pin (num 29) (name PD4) (type 3state))
        (pin (num 30) (name PD5) (type 3state))
        (pin (num 31) (name PD6) (type 3state))
        (pin (num 32) (name PD7) (type 3state))
        (pin (num 33) (name PG0) (type 3state))
        (pin (num 34) (name PG1) (type 3state))
        (pin (num 35) (name PC0) (type 3state))
        (pin (num 36) (name PC1) (type 3state))
        (pin (num 37) (name PC2) (type 3state))
        (pin (num 38) (name PC3) (type 3state))
        (pin (num 39) (name PC4) (type 3state))
        (pin (num 40) (name PC5) (type 3state))
        (pin (num 41) (name PC6) (type 3state))
        (pin (num 42) (name PC7) (type 3state))
        (pin (num 43) (name PG2) (type 3state))
        (pin (num 44) (name PA7) (type 3state))
        (pin (num 45) (name PA6) (type 3state))
        (pin (num 46) (name PA5) (type 3state))
        (pin (num 47) (name PA4) (type 3state))
        (pin (num 48) (name PA3) (type 3state))
        (pin (num 49) (name PA2) (type 3state))
        (pin (num 50) (name PA1) (type 3state))
        (pin (num 51) (name PA0) (type 3state))
        (pin (num 52) (name VCC) (type passive))
        (pin (num 53) (name GND) (type passive))
        (pin (num 54) (name PF7) (type 3state))
        (pin (num 55) (name PF6) (type 3state))
        (pin (num 56) (name PF5) (type 3state))
        (pin (num 57) (name PF4) (type 3state))
        (pin (num 58) (name PF3) (type 3state))
        (pin (num 59) (name PF2) (type 3state))
        (pin (num 60) (name PF1) (type 3state))
        (pin (num 61) (name PF0) (type 3state))
        (pin (num 62) (name AREF) (type passive))
        (pin (num 63) (name GND) (type passive))
        (pin (num 64) (name AVCC) (type power_in))))
    (libpart (lib RF_Module) (part ESP-12E)
      (aliases
        (alias ESP-12F))
      (description "802.11 b/g/n Wi-Fi Module")
      (docs http://wiki.ai-thinker.com/_media/esp8266/esp8266_series_modules_user_manual_v1.1.pdf)
      (footprints
        (fp ESP?12*))
      (fields
        (field (name Reference) U)
        (field (name Value) ESP-12E)
        (field (name Footprint) RF_Module:ESP-12E))
      (pins
        (pin (num 1) (name ~RST) (type input))
        (pin (num 2) (name ADC) (type input))
        (pin (num 3) (name EN) (type input))
        (pin (num 4) (name GPIO16) (type BiDi))
        (pin (num 5) (name GPIO14) (type BiDi))
        (pin (num 6) (name GPIO12) (type BiDi))
        (pin (num 7) (name GPIO13) (type BiDi))
        (pin (num 8) (name VCC) (type power_in))
        (pin (num 9) (name CS0) (type input))
        (pin (num 10) (name MISO) (type BiDi))
        (pin (num 11) (name GPIO9) (type BiDi))
        (pin (num 12) (name GPIO10) (type BiDi))
        (pin (num 13) (name MOSI) (type BiDi))
        (pin (num 14) (name SCLK) (type BiDi))
        (pin (num 15) (name GND) (type power_in))
        (pin (num 16) (name GPIO15) (type BiDi))
        (pin (num 17) (name GPIO2) (type BiDi))
        (pin (num 18) (name GPIO0) (type BiDi))
        (pin (num 19) (name GPIO4) (type BiDi))
        (pin (num 20) (name GPIO5) (type BiDi))
        (pin (num 21) (name GPIO3/RXD) (type BiDi))
        (pin (num 22) (name GPIO1/TXD) (type BiDi))))
    (libpart (lib Regulator_Linear) (part AP1117-15)
      (aliases
        (alias AP1117-18)
        (alias AP1117-25)
        (alias AP1117-33)
        (alias AP1117-50)
        (alias LD1117S33TR_SOT223)
        (alias LD1117S12TR_SOT223)
        (alias LD1117S18TR_SOT223)
        (alias LD1117S25TR_SOT223)
        (alias LD1117S50TR_SOT223)
        (alias NCP1117-12_SOT223)
        (alias NCP1117-1.5_SOT223)
        (alias NCP1117-1.8_SOT223)
        (alias NCP1117-2.0_SOT223)
        (alias NCP1117-2.5_SOT223)
        (alias NCP1117-2.85_SOT223)
        (alias NCP1117-3.3_SOT223)
        (alias NCP1117-5.0_SOT223)
        (alias AMS1117-1.5)
        (alias AMS1117-1.8)
        (alias AMS1117-2.5)
        (alias AMS1117-2.85)
        (alias AMS1117-3.3)
        (alias AMS1117-5.0))
      (description "1A Low Dropout regulator, positive, 1.5V fixed output, SOT-223")
      (docs http://www.diodes.com/datasheets/AP1117.pdf)
      (footprints
        (fp SOT?223*TabPin2*))
      (fields
        (field (name Reference) U)
        (field (name Value) AP1117-15)
        (field (name Footprint) Package_TO_SOT_SMD:SOT-223-3_TabPin2))
      (pins
        (pin (num 1) (name GND) (type power_in))
        (pin (num 2) (name VO) (type power_out))
        (pin (num 3) (name VI) (type power_in))))
    (libpart (lib Switch) (part SW_Push)
      (description "Push button switch, generic, two pins")
      (fields
        (field (name Reference) SW)
        (field (name Value) SW_Push))
      (pins
        (pin (num 1) (name 1) (type passive))
        (pin (num 2) (name 2) (type passive))))
    (libpart (lib Transistor_BJT) (part BC807)
      (aliases
        (alias BC808)
        (alias BC856)
        (alias BC857)
        (alias BC858)
        (alias BC859)
        (alias BC860)
        (alias MMBT3906))
      (description "0.8A Ic, 45V Vce, PNP Transistor, SOT-23")
      (docs http://www.fairchildsemi.com/ds/BC/BC807.pdf)
      (footprints
        (fp SOT?23*))
      (fields
        (field (name Reference) Q)
        (field (name Value) BC807)
        (field (name Footprint) Package_TO_SOT_SMD:SOT-23))
      (pins
        (pin (num 1) (name B) (type input))
        (pin (num 2) (name E) (type passive))
        (pin (num 3) (name C) (type passive))))
    (libpart (lib Transistor_BJT) (part BC817)
      (aliases
        (alias BC818)
        (alias BC847)
        (alias BC848)
        (alias BC849)
        (alias BC850)
        (alias MMBT3904)
        (alias MMBT5550L)
        (alias MMBT5551L))
      (description "0.8A Ic, 45V Vce, NPN Transistor, SOT-23")
      (docs http://www.fairchildsemi.com/ds/BC/BC817.pdf)
      (footprints
        (fp SOT?23*))
      (fields
        (field (name Reference) Q)
        (field (name Value) BC817)
        (field (name Footprint) Package_TO_SOT_SMD:SOT-23))
      (pins
        (pin (num 1) (name B) (type input))
        (pin (num 2) (name E) (type passive))
        (pin (num 3) (name C) (type passive))))
    (libpart (lib ssd1306) (part SSD1306)
      (fields
        (field (name Reference) U)
        (field (name Value) SSD1306))
      (pins
        (pin (num 1) (name GND) (type input))
        (pin (num 2) (name VCC) (type input))
        (pin (num 3) (name SCK) (type input))
        (pin (num 4) (name SDA) (type input))))
    (libpart (lib stm32f103c8t6-module-china) (part stm32f103c8t6-module-china)
      (fields
        (field (name Reference) U)
        (field (name Value) stm32f103c8t6-module-china)
        (field (name Footprint) myelin-kicad:stm32f103c8t6-module-china))
      (pins
        (pin (num 1) (name B12/NSS2) (type BiDi))
        (pin (num 2) (name B13/SCK2) (type BiDi))
        (pin (num 3) (name B14/MISO2) (type BiDi))
        (pin (num 4) (name B15/MOSI2) (type BiDi))
        (pin (num 5) (name A8/MCO) (type BiDi))
        (pin (num 6) (name A9/U1TXa) (type BiDi))
        (pin (num 7) (name A10/U1RXa) (type BiDi))
        (pin (num 8) (name A11/CANRX/USBDM) (type BiDi))
        (pin (num 9) (name A12/CANTX/USBDP) (type BiDi))
        (pin (num 10) (name A15/JTDI) (type BiDi))
        (pin (num 11) (name B3/JTDO) (type BiDi))
        (pin (num 12) (name B4/JnTRST) (type BiDi))
        (pin (num 13) (name B5) (type BiDi))
        (pin (num 14) (name B6/SCL1a/U1TXb) (type BiDi))
        (pin (num 15) (name B7/SDA1a/U1RXb) (type BiDi))
        (pin (num 16) (name B8/SCL1b/CANRX) (type BiDi))
        (pin (num 17) (name B9/SDA1b/CANTX) (type BiDi))
        (pin (num 18) (name 5V) (type power_in))
        (pin (num 19) (name GND) (type passive))
        (pin (num 20) (name 3V3) (type power_out))
        (pin (num 21) (name VBAT) (type power_in))
        (pin (num 22) (name C13) (type BiDi))
        (pin (num 23) (name C14/OSC32_IN) (type input))
        (pin (num 24) (name C15/OSC32_OUT) (type input))
        (pin (num 25) (name A0/WKUP) (type BiDi))
        (pin (num 26) (name A1) (type BiDi))
        (pin (num 27) (name A2/U2TX) (type BiDi))
        (pin (num 28) (name A3/U2RX) (type BiDi))
        (pin (num 29) (name A4/NSS1) (type BiDi))
        (pin (num 30) (name A5/SCK1) (type BiDi))
        (pin (num 31) (name A6/MISO1) (type BiDi))
        (pin (num 32) (name A7/MOSI1) (type BiDi))
        (pin (num 33) (name B0) (type BiDi))
        (pin (num 34) (name B1) (type BiDi))
        (pin (num 35) (name B10/SCL2/U3TX) (type input))
        (pin (num 36) (name B11/SDA2/U3RX) (type BiDi))
        (pin (num 37) (name nRESET) (type input))
        (pin (num 38) (name 3V3) (type passive))
        (pin (num 39) (name GND) (type passive))
        (pin (num 40) (name GND) (type passive)))))
  (libraries
    (library (logical Connector)
      (uri /usr/share/kicad/library/Connector.lib))
    (library (logical Connector_Generic)
      (uri /usr/share/kicad/library/Connector_Generic.lib))
    (library (logical Device)
      (uri /usr/share/kicad/library/Device.lib))
    (library (logical MCU_Microchip_ATmega)
      (uri /usr/share/kicad/library/MCU_Microchip_ATmega.lib))
    (library (logical RF_Module)
      (uri /usr/share/kicad/library/RF_Module.lib))
    (library (logical Regulator_Linear)
      (uri /usr/share/kicad/library/Regulator_Linear.lib))
    (library (logical Switch)
      (uri /usr/share/kicad/library/Switch.lib))
    (library (logical Transistor_BJT)
      (uri /usr/share/kicad/library/Transistor_BJT.lib))
    (library (logical ssd1306)
      (uri /home/dev/workspace/kicadlib/library//ssd1306.lib))
    (library (logical stm32f103c8t6-module-china)
      (uri /home/dev/workspace/kicadlib/library//stm32f103c8t6-module-china.lib)))
  (nets
    (net (code 1) (name "Net-(D1-Pad2)")
      (node (ref L1) (pin 2))
      (node (ref D1) (pin 2))
      (node (ref Q22) (pin 4)))
    (net (code 2) (name /oc3c)
      (node (ref U1) (pin 7))
      (node (ref R77) (pin 2)))
    (net (code 3) (name "Net-(Q22-Pad1)")
      (node (ref R77) (pin 1))
      (node (ref R75) (pin 2))
      (node (ref Q22) (pin 1)))
    (net (code 6) (name /oc3b)
      (node (ref U1) (pin 6))
      (node (ref R78) (pin 2)))
    (net (code 7) (name "Net-(D2-Pad2)")
      (node (ref Q23) (pin 2))
      (node (ref D2) (pin 2))
      (node (ref L2) (pin 2)))
    (net (code 8) (name "Net-(Q23-Pad1)")
      (node (ref Q23) (pin 1))
      (node (ref R78) (pin 1))
      (node (ref R76) (pin 2)))
    (net (code 9) (name GND)
      (node (ref C11) (pin 2))
      (node (ref Q17) (pin 2))
      (node (ref Q18) (pin 2))
      (node (ref Q19) (pin 2))
      (node (ref J7) (pin 1))
      (node (ref J8) (pin 1))
      (node (ref C9) (pin 2))
      (node (ref SW1) (pin 1))
      (node (ref C1) (pin 2))
      (node (ref SW2) (pin 1))
      (node (ref SW3) (pin 1))
      (node (ref C2) (pin 2))
      (node (ref Q20) (pin 2))
      (node (ref U1) (pin 63))
      (node (ref U1) (pin 53))
      (node (ref J26) (pin 1))
      (node (ref U4) (pin 1))
      (node (ref J35) (pin 1))
      (node (ref U1) (pin 22))
      (node (ref C13) (pin 2))
      (node (ref Q13) (pin 2))
      (node (ref Q14) (pin 2))
      (node (ref C15) (pin 2))
      (node (ref Q15) (pin 2))
      (node (ref Q16) (pin 2))
      (node (ref J9) (pin 10))
      (node (ref Q23) (pin 3))
      (node (ref U2) (pin 19))
      (node (ref C10) (pin 2))
      (node (ref Q22) (pin 3))
      (node (ref R71) (pin 1))
      (node (ref C4) (pin 2))
      (node (ref C3) (pin 2))
      (node (ref R76) (pin 1))
      (node (ref R42) (pin 1))
      (node (ref R75) (pin 1))
      (node (ref C8) (pin 2))
      (node (ref J27) (pin 1))
      (node (ref C6) (pin 2))
      (node (ref R73) (pin 1))
      (node (ref J12) (pin 1))
      (node (ref C7) (pin 2))
      (node (ref J11) (pin 1)))
    (net (code 10) (name "Net-(U3-Pad11)")
      (node (ref U3) (pin 11)))
    (net (code 11) (name "Net-(U3-Pad12)")
      (node (ref U3) (pin 12)))
    (net (code 12) (name "Net-(U3-Pad13)")
      (node (ref U3) (pin 13)))
    (net (code 13) (name "Net-(U3-Pad14)")
      (node (ref U3) (pin 14)))
    (net (code 14) (name "Net-(U3-Pad4)")
      (node (ref U3) (pin 4)))
    (net (code 15) (name /mosi2)
      (node (ref U2) (pin 4))
      (node (ref U1) (pin 2))
      (node (ref U1) (pin 13)))
    (net (code 16) (name /miso2)
      (node (ref U1) (pin 12))
      (node (ref U1) (pin 3))
      (node (ref U2) (pin 3)))
    (net (code 17) (name /a0)
      (node (ref J25) (pin 1))
      (node (ref J24) (pin 1))
      (node (ref U2) (pin 25))
      (node (ref R56) (pin 2))
      (node (ref C3) (pin 1))
      (node (ref R41) (pin 1))
      (node (ref R42) (pin 2)))
    (net (code 18) (name "Net-(U3-Pad10)")
      (node (ref U3) (pin 10)))
    (net (code 19) (name /c13)
      (node (ref U2) (pin 22))
      (node (ref R62) (pin 2)))
    (net (code 20) (name /c14)
      (node (ref U2) (pin 23))
      (node (ref R50) (pin 2)))
    (net (code 21) (name /c15)
      (node (ref U2) (pin 24))
      (node (ref R63) (pin 2)))
    (net (code 22) (name /a1)
      (node (ref R51) (pin 2))
      (node (ref U2) (pin 26)))
    (net (code 23) (name /a2)
      (node (ref R52) (pin 2))
      (node (ref U2) (pin 27)))
    (net (code 25) (name "Net-(R67-Pad2)")
      (node (ref U3) (pin 18))
      (node (ref R67) (pin 2)))
    (net (code 26) (name /arst)
      (node (ref U2) (pin 1))
      (node (ref J6) (pin 1))
      (node (ref R43) (pin 1))
      (node (ref R67) (pin 1))
      (node (ref U1) (pin 20))
      (node (ref J10) (pin 1)))
    (net (code 30) (name /b0)
      (node (ref U2) (pin 33))
      (node (ref R61) (pin 2)))
    (net (code 31) (name "Net-(U3-Pad2)")
      (node (ref U3) (pin 2)))
    (net (code 32) (name "Net-(U3-Pad9)")
      (node (ref U3) (pin 9)))
    (net (code 33) (name /adc0)
      (node (ref R73) (pin 2))
      (node (ref R72) (pin 1))
      (node (ref U1) (pin 61)))
    (net (code 34) (name /vcc)
      (node (ref Q10) (pin 2))
      (node (ref Q11) (pin 2))
      (node (ref Q12) (pin 2))
      (node (ref Q7) (pin 2))
      (node (ref Q8) (pin 2))
      (node (ref Q9) (pin 2))
      (node (ref C8) (pin 1))
      (node (ref R70) (pin 2))
      (node (ref D1) (pin 1))
      (node (ref C6) (pin 1)))
    (net (code 35) (name /adc1)
      (node (ref R71) (pin 2))
      (node (ref R70) (pin 1))
      (node (ref U1) (pin 60)))
    (net (code 37) (name "Net-(Q24-Pad4)")
      (node (ref Q24) (pin 4))
      (node (ref R74) (pin 1)))
    (net (code 38) (name /tdo)
      (node (ref U2) (pin 11))
      (node (ref R87) (pin 2))
      (node (ref R48) (pin 2)))
    (net (code 40) (name "Net-(L1-Pad1)")
      (node (ref L1) (pin 1))
      (node (ref R74) (pin 2))
      (node (ref L2) (pin 1)))
    (net (code 41) (name /a8)
      (node (ref U2) (pin 5))
      (node (ref R54) (pin 2)))
    (net (code 42) (name /a10)
      (node (ref U2) (pin 7))
      (node (ref R53) (pin 2)))
    (net (code 43) (name /a3)
      (node (ref R47) (pin 2))
      (node (ref U2) (pin 28)))
    (net (code 44) (name /rst)
      (node (ref R84) (pin 2))
      (node (ref U2) (pin 12))
      (node (ref R45) (pin 2)))
    (net (code 45) (name /uart1_tx)
      (node (ref R44) (pin 2))
      (node (ref R88) (pin 1))
      (node (ref U2) (pin 14)))
    (net (code 46) (name /uart1_rx)
      (node (ref R55) (pin 2))
      (node (ref U2) (pin 15))
      (node (ref R89) (pin 1)))
    (net (code 47) (name /a9)
      (node (ref R59) (pin 2))
      (node (ref U2) (pin 6)))
    (net (code 48) (name /tdi)
      (node (ref U2) (pin 10))
      (node (ref R57) (pin 2))
      (node (ref R83) (pin 2)))
    (net (code 49) (name /b5)
      (node (ref U2) (pin 13))
      (node (ref R49) (pin 2)))
    (net (code 50) (name /a4)
      (node (ref R46) (pin 2))
      (node (ref U2) (pin 29)))
    (net (code 51) (name /a5)
      (node (ref U2) (pin 30))
      (node (ref R64) (pin 2)))
    (net (code 52) (name /a6)
      (node (ref U2) (pin 31))
      (node (ref R58) (pin 2)))
    (net (code 53) (name /a7)
      (node (ref R60) (pin 2))
      (node (ref U2) (pin 32)))
    (net (code 54) (name /sck2)
      (node (ref U2) (pin 2))
      (node (ref U1) (pin 11)))
    (net (code 55) (name "Net-(Q21-Pad1)")
      (node (ref Q21) (pin 1))
      (node (ref R64) (pin 1)))
    (net (code 56) (name /cgp_10)
      (node (ref Q21) (pin 3))
      (node (ref R10) (pin 1))
      (node (ref Q10) (pin 3))
      (node (ref Q15) (pin 3))
      (node (ref J1) (pin 10)))
    (net (code 57) (name "Net-(Q20-Pad1)")
      (node (ref Q20) (pin 1))
      (node (ref R63) (pin 1)))
    (net (code 58) (name "Net-(Q18-Pad1)")
      (node (ref Q18) (pin 1))
      (node (ref R61) (pin 1)))
    (net (code 59) (name /u3rx)
      (node (ref U2) (pin 36))
      (node (ref J18) (pin 1))
      (node (ref U3) (pin 22)))
    (net (code 60) (name /p42)
      (node (ref U1) (pin 42))
      (node (ref R31) (pin 2)))
    (net (code 61) (name /p41)
      (node (ref R9) (pin 2))
      (node (ref U1) (pin 41)))
    (net (code 62) (name "Net-(R65-Pad1)")
      (node (ref R65) (pin 1))
      (node (ref U3) (pin 3)))
    (net (code 63) (name "Net-(R68-Pad2)")
      (node (ref R68) (pin 2))
      (node (ref U3) (pin 16)))
    (net (code 64) (name /u3tx)
      (node (ref U2) (pin 35))
      (node (ref J19) (pin 1))
      (node (ref U3) (pin 21)))
    (net (code 65) (name "Net-(J22-Pad1)")
      (node (ref J22) (pin 1))
      (node (ref U3) (pin 17)))
    (net (code 66) (name "Net-(U2-Pad9)")
      (node (ref U2) (pin 9)))
    (net (code 67) (name "Net-(U2-Pad8)")
      (node (ref U2) (pin 8)))
    (net (code 68) (name "Net-(U2-Pad37)")
      (node (ref U2) (pin 37)))
    (net (code 69) (name "Net-(U2-Pad21)")
      (node (ref U2) (pin 21)))
    (net (code 70) (name "Net-(U3-Pad7)")
      (node (ref U3) (pin 7)))
    (net (code 71) (name "Net-(D4-Pad1)")
      (node (ref U3) (pin 5))
      (node (ref D4) (pin 1)))
    (net (code 72) (name "Net-(J21-Pad1)")
      (node (ref U3) (pin 20))
      (node (ref J21) (pin 1)))
    (net (code 73) (name "Net-(J20-Pad1)")
      (node (ref J20) (pin 1))
      (node (ref U3) (pin 19)))
    (net (code 74) (name +3V3)
      (node (ref R81) (pin 2))
      (node (ref U5) (pin 2))
      (node (ref U2) (pin 38))
      (node (ref C16) (pin 1))
      (node (ref U3) (pin 8))
      (node (ref R66) (pin 2))
      (node (ref J29) (pin 2))
      (node (ref R65) (pin 2))
      (node (ref R82) (pin 2))
      (node (ref C14) (pin 1)))
    (net (code 75) (name "Net-(Q24-Pad2)")
      (node (ref Q24) (pin 2)))
    (net (code 76) (name +5V)
      (node (ref C12) (pin 1))
      (node (ref J16) (pin 1))
      (node (ref J15) (pin 1))
      (node (ref C13) (pin 1))
      (node (ref R91) (pin 2))
      (node (ref Q24) (pin 3))
      (node (ref U2) (pin 18))
      (node (ref J38) (pin 1))
      (node (ref J37) (pin 1))
      (node (ref C4) (pin 1))
      (node (ref U1) (pin 52))
      (node (ref C11) (pin 1))
      (node (ref J36) (pin 1))
      (node (ref J34) (pin 1))
      (node (ref U5) (pin 3))
      (node (ref U1) (pin 21))
      (node (ref J4) (pin 1))
      (node (ref R43) (pin 2))
      (node (ref U1) (pin 64))
      (node (ref J5) (pin 1)))
    (net (code 77) (name "Net-(Q24-Pad1)")
      (node (ref R91) (pin 1))
      (node (ref Q24) (pin 1))
      (node (ref R90) (pin 2)))
    (net (code 78) (name "Net-(C15-Pad1)")
      (node (ref C15) (pin 1))
      (node (ref J29) (pin 1))
      (node (ref J9) (pin 2)))
    (net (code 79) (name "Net-(J32-Pad1)")
      (node (ref R39) (pin 1))
      (node (ref J32) (pin 1))
      (node (ref U1) (pin 4))
      (node (ref J33) (pin 1)))
    (net (code 80) (name "Net-(J30-Pad1)")
      (node (ref J30) (pin 1))
      (node (ref J31) (pin 1))
      (node (ref U1) (pin 5))
      (node (ref R40) (pin 1)))
    (net (code 81) (name "Net-(Q22-Pad2)")
      (node (ref Q22) (pin 2)))
    (net (code 82) (name "Net-(Q23-Pad4)")
      (node (ref Q23) (pin 4)))
    (net (code 83) (name "Net-(U1-Pad1)")
      (node (ref U1) (pin 1)))
    (net (code 84) (name /erst)
      (node (ref U3) (pin 1))
      (node (ref J39) (pin 1))
      (node (ref R66) (pin 1))
      (node (ref U2) (pin 34))
      (node (ref J40) (pin 1)))
    (net (code 85) (name /pc)
      (node (ref J28) (pin 1))
      (node (ref R90) (pin 1))
      (node (ref J17) (pin 1))
      (node (ref U1) (pin 14)))
    (net (code 86) (name "Net-(R80-Pad2)")
      (node (ref R80) (pin 2))
      (node (ref U4) (pin 3))
      (node (ref U2) (pin 16)))
    (net (code 87) (name "Net-(R79-Pad2)")
      (node (ref R79) (pin 2))
      (node (ref U2) (pin 17))
      (node (ref U4) (pin 4)))
    (net (code 88) (name "Net-(R79-Pad1)")
      (node (ref U4) (pin 2))
      (node (ref R80) (pin 1))
      (node (ref R79) (pin 1))
      (node (ref U2) (pin 20)))
    (net (code 89) (name GNDD)
      (node (ref C16) (pin 2))
      (node (ref C12) (pin 2))
      (node (ref U5) (pin 1))
      (node (ref C14) (pin 2))
      (node (ref R68) (pin 1))
      (node (ref U2) (pin 39))
      (node (ref U2) (pin 40))
      (node (ref U3) (pin 15))
      (node (ref J23) (pin 1)))
    (net (code 90) (name "Net-(C10-Pad1)")
      (node (ref U1) (pin 62))
      (node (ref C10) (pin 1)))
    (net (code 91) (name "Net-(D3-Pad1)")
      (node (ref U3) (pin 6))
      (node (ref D3) (pin 1)))
    (net (code 92) (name "Net-(D3-Pad2)")
      (node (ref D3) (pin 2))
      (node (ref R81) (pin 1)))
    (net (code 93) (name "Net-(D4-Pad2)")
      (node (ref D4) (pin 2))
      (node (ref R82) (pin 1)))
    (net (code 94) (name /sw1)
      (node (ref U1) (pin 10))
      (node (ref SW1) (pin 2)))
    (net (code 95) (name /sw3)
      (node (ref SW3) (pin 2))
      (node (ref U1) (pin 9)))
    (net (code 96) (name /sw2)
      (node (ref SW2) (pin 2))
      (node (ref U1) (pin 8)))
    (net (code 97) (name /tms)
      (node (ref J3) (pin 1))
      (node (ref R85) (pin 2)))
    (net (code 98) (name "Net-(J9-Pad5)")
      (node (ref R85) (pin 1))
      (node (ref J9) (pin 5)))
    (net (code 99) (name "Net-(J9-Pad3)")
      (node (ref R84) (pin 1))
      (node (ref J9) (pin 3)))
    (net (code 100) (name "Net-(J9-Pad1)")
      (node (ref J9) (pin 1))
      (node (ref R83) (pin 1)))
    (net (code 101) (name /tpwr)
      (node (ref R41) (pin 2))
      (node (ref J9) (pin 8)))
    (net (code 102) (name /tck)
      (node (ref J2) (pin 1))
      (node (ref R86) (pin 2)))
    (net (code 103) (name "Net-(J9-Pad7)")
      (node (ref J9) (pin 7))
      (node (ref R86) (pin 1)))
    (net (code 106) (name "Net-(J9-Pad9)")
      (node (ref J9) (pin 9))
      (node (ref R87) (pin 1)))
    (net (code 107) (name "Net-(J9-Pad6)")
      (node (ref R89) (pin 2))
      (node (ref J9) (pin 6)))
    (net (code 108) (name "Net-(J9-Pad4)")
      (node (ref R88) (pin 2))
      (node (ref J9) (pin 4)))
    (net (code 110) (name "Net-(Q17-Pad1)")
      (node (ref R60) (pin 1))
      (node (ref Q17) (pin 1)))
    (net (code 111) (name /pin_26)
      (node (ref R26) (pin 1))
      (node (ref J1) (pin 26)))
    (net (code 112) (name "Net-(R11-Pad2)")
      (node (ref R11) (pin 2))
      (node (ref U1) (pin 37)))
    (net (code 113) (name "Net-(R8-Pad1)")
      (node (ref U1) (pin 43))
      (node (ref R8) (pin 1)))
    (net (code 114) (name /vcc_21)
      (node (ref R21) (pin 2))
      (node (ref Q11) (pin 3))
      (node (ref J1) (pin 21)))
    (net (code 115) (name /pin_22)
      (node (ref R22) (pin 2))
      (node (ref J1) (pin 22)))
    (net (code 116) (name /pin_23)
      (node (ref J1) (pin 23))
      (node (ref R23) (pin 1)))
    (net (code 117) (name /pin_24)
      (node (ref J1) (pin 24))
      (node (ref R24) (pin 1)))
    (net (code 118) (name /pin_25)
      (node (ref J1) (pin 25))
      (node (ref R25) (pin 1)))
    (net (code 119) (name /pin_27)
      (node (ref R27) (pin 2))
      (node (ref J1) (pin 27)))
    (net (code 120) (name /pin_28)
      (node (ref R28) (pin 1))
      (node (ref J1) (pin 28)))
    (net (code 121) (name /pin_29)
      (node (ref R29) (pin 1))
      (node (ref J1) (pin 29)))
    (net (code 122) (name /pin_30)
      (node (ref J1) (pin 30))
      (node (ref R30) (pin 1)))
    (net (code 123) (name /pin_32)
      (node (ref J1) (pin 32))
      (node (ref R32) (pin 1)))
    (net (code 124) (name /pin_33)
      (node (ref R33) (pin 1))
      (node (ref J1) (pin 33)))
    (net (code 125) (name /pin_35)
      (node (ref R35) (pin 1))
      (node (ref J1) (pin 35)))
    (net (code 126) (name /pin_37)
      (node (ref J1) (pin 37))
      (node (ref R37) (pin 2)))
    (net (code 127) (name /pin_38)
      (node (ref R38) (pin 2))
      (node (ref J1) (pin 38)))
    (net (code 128) (name /pin_39)
      (node (ref J1) (pin 39))
      (node (ref R39) (pin 2)))
    (net (code 129) (name "Net-(R28-Pad2)")
      (node (ref U1) (pin 36))
      (node (ref R28) (pin 2)))
    (net (code 130) (name /vpp_31)
      (node (ref Q4) (pin 3))
      (node (ref R31) (pin 1))
      (node (ref J1) (pin 31)))
    (net (code 131) (name "Net-(R12-Pad2)")
      (node (ref R12) (pin 2))
      (node (ref U1) (pin 35)))
    (net (code 132) (name "Net-(R29-Pad2)")
      (node (ref U1) (pin 38))
      (node (ref R29) (pin 2)))
    (net (code 133) (name "Net-(R33-Pad2)")
      (node (ref R33) (pin 2))
      (node (ref U1) (pin 46)))
    (net (code 134) (name "Net-(R6-Pad2)")
      (node (ref U1) (pin 47))
      (node (ref R6) (pin 2)))
    (net (code 135) (name "Net-(R32-Pad2)")
      (node (ref U1) (pin 44))
      (node (ref R32) (pin 2)))
    (net (code 136) (name /p39)
      (node (ref U1) (pin 39))
      (node (ref R10) (pin 2)))
    (net (code 137) (name /vgp_36)
      (node (ref R36) (pin 2))
      (node (ref J1) (pin 36))
      (node (ref Q20) (pin 3))
      (node (ref Q6) (pin 3)))
    (net (code 138) (name /vgc_40)
      (node (ref Q12) (pin 3))
      (node (ref Q19) (pin 3))
      (node (ref J1) (pin 40))
      (node (ref R40) (pin 2)))
    (net (code 139) (name "Net-(R2-Pad1)")
      (node (ref U1) (pin 57))
      (node (ref R2) (pin 1)))
    (net (code 140) (name /p59)
      (node (ref R1) (pin 1))
      (node (ref U1) (pin 59)))
    (net (code 141) (name /vpp_34)
      (node (ref J1) (pin 34))
      (node (ref R34) (pin 1))
      (node (ref Q5) (pin 3)))
    (net (code 142) (name /p54)
      (node (ref U1) (pin 54))
      (node (ref R36) (pin 1)))
    (net (code 143) (name "Net-(R37-Pad1)")
      (node (ref U1) (pin 56))
      (node (ref R37) (pin 1)))
    (net (code 144) (name "Net-(R38-Pad1)")
      (node (ref R38) (pin 1))
      (node (ref U1) (pin 58)))
    (net (code 145) (name "Net-(R3-Pad1)")
      (node (ref R3) (pin 1))
      (node (ref U1) (pin 55)))
    (net (code 146) (name "Net-(R13-Pad1)")
      (node (ref R13) (pin 1))
      (node (ref U1) (pin 33)))
    (net (code 147) (name "Net-(R24-Pad2)")
      (node (ref U1) (pin 28))
      (node (ref R24) (pin 2)))
    (net (code 148) (name "Net-(R16-Pad2)")
      (node (ref U1) (pin 27))
      (node (ref R16) (pin 2)))
    (net (code 149) (name "Net-(R27-Pad1)")
      (node (ref R27) (pin 1))
      (node (ref U1) (pin 34)))
    (net (code 150) (name "Net-(R30-Pad2)")
      (node (ref U1) (pin 40))
      (node (ref R30) (pin 2)))
    (net (code 151) (name "Net-(R25-Pad2)")
      (node (ref R25) (pin 2))
      (node (ref U1) (pin 30)))
    (net (code 152) (name "Net-(R15-Pad2)")
      (node (ref U1) (pin 29))
      (node (ref R15) (pin 2)))
    (net (code 153) (name "Net-(R26-Pad2)")
      (node (ref U1) (pin 32))
      (node (ref R26) (pin 2)))
    (net (code 154) (name "Net-(R14-Pad2)")
      (node (ref U1) (pin 31))
      (node (ref R14) (pin 2)))
    (net (code 155) (name "Net-(R23-Pad2)")
      (node (ref R23) (pin 2))
      (node (ref U1) (pin 26)))
    (net (code 156) (name "Net-(R17-Pad2)")
      (node (ref R17) (pin 2))
      (node (ref U1) (pin 25)))
    (net (code 157) (name "Net-(R22-Pad1)")
      (node (ref R22) (pin 1))
      (node (ref U1) (pin 19)))
    (net (code 158) (name "Net-(R21-Pad1)")
      (node (ref U1) (pin 18))
      (node (ref R21) (pin 1)))
    (net (code 159) (name "Net-(R18-Pad2)")
      (node (ref R18) (pin 2))
      (node (ref U1) (pin 17)))
    (net (code 160) (name "Net-(R19-Pad2)")
      (node (ref R19) (pin 2))
      (node (ref U1) (pin 16)))
    (net (code 161) (name "Net-(R35-Pad2)")
      (node (ref R35) (pin 2))
      (node (ref U1) (pin 50)))
    (net (code 162) (name "Net-(R5-Pad2)")
      (node (ref R5) (pin 2))
      (node (ref U1) (pin 49)))
    (net (code 163) (name /p48)
      (node (ref R34) (pin 2))
      (node (ref U1) (pin 48)))
    (net (code 164) (name "Net-(R20-Pad2)")
      (node (ref U1) (pin 15))
      (node (ref R20) (pin 2)))
    (net (code 165) (name "Net-(R7-Pad2)")
      (node (ref U1) (pin 45))
      (node (ref R7) (pin 2)))
    (net (code 166) (name /pin_2)
      (node (ref R2) (pin 2))
      (node (ref J1) (pin 2)))
    (net (code 167) (name /pin_3)
      (node (ref J1) (pin 3))
      (node (ref R3) (pin 2)))
    (net (code 168) (name /gnd_20)
      (node (ref Q18) (pin 3))
      (node (ref R20) (pin 1))
      (node (ref J1) (pin 20)))
    (net (code 169) (name /pin_19)
      (node (ref R19) (pin 1))
      (node (ref J1) (pin 19)))
    (net (code 170) (name /pin_18)
      (node (ref J1) (pin 18))
      (node (ref R18) (pin 1)))
    (net (code 171) (name /pin_17)
      (node (ref J1) (pin 17))
      (node (ref R17) (pin 1)))
    (net (code 172) (name /pin_16)
      (node (ref R16) (pin 1))
      (node (ref J1) (pin 16)))
    (net (code 173) (name /pin_15)
      (node (ref R15) (pin 1))
      (node (ref J1) (pin 15)))
    (net (code 174) (name /gnd_14)
      (node (ref Q17) (pin 3))
      (node (ref R14) (pin 1))
      (node (ref J1) (pin 14)))
    (net (code 175) (name /pin_13)
      (node (ref R13) (pin 2))
      (node (ref J1) (pin 13)))
    (net (code 176) (name /pin_12)
      (node (ref J1) (pin 12))
      (node (ref R12) (pin 1)))
    (net (code 177) (name /gnd_11)
      (node (ref Q16) (pin 3))
      (node (ref R11) (pin 1))
      (node (ref J1) (pin 11)))
    (net (code 178) (name /gnd_8)
      (node (ref Q14) (pin 3))
      (node (ref J1) (pin 8))
      (node (ref R8) (pin 2)))
    (net (code 179) (name /vcc_7)
      (node (ref R7) (pin 1))
      (node (ref Q9) (pin 3))
      (node (ref J1) (pin 7)))
    (net (code 180) (name /pin_6)
      (node (ref J1) (pin 6))
      (node (ref R6) (pin 1)))
    (net (code 181) (name /vcc_5)
      (node (ref Q8) (pin 3))
      (node (ref R5) (pin 1))
      (node (ref J1) (pin 5)))
    (net (code 182) (name /vgp_4)
      (node (ref Q13) (pin 3))
      (node (ref Q2) (pin 3))
      (node (ref J1) (pin 4))
      (node (ref R4) (pin 1)))
    (net (code 183) (name /p51)
      (node (ref U1) (pin 51))
      (node (ref R4) (pin 2)))
    (net (code 184) (name /vcp_1)
      (node (ref Q7) (pin 3))
      (node (ref Q1) (pin 3))
      (node (ref J1) (pin 1))
      (node (ref R1) (pin 2)))
    (net (code 185) (name /vpp_9)
      (node (ref Q3) (pin 3))
      (node (ref R9) (pin 1))
      (node (ref J1) (pin 9)))
    (net (code 186) (name "Net-(Q9-Pad1)")
      (node (ref Q9) (pin 1))
      (node (ref R52) (pin 1)))
    (net (code 187) (name "Net-(Q8-Pad1)")
      (node (ref R51) (pin 1))
      (node (ref Q8) (pin 1)))
    (net (code 188) (name "Net-(Q7-Pad1)")
      (node (ref R50) (pin 1))
      (node (ref Q7) (pin 1)))
    (net (code 189) (name "Net-(Q10-Pad1)")
      (node (ref R53) (pin 1))
      (node (ref Q10) (pin 1)))
    (net (code 190) (name "Net-(Q11-Pad1)")
      (node (ref Q11) (pin 1))
      (node (ref R54) (pin 1)))
    (net (code 191) (name "Net-(Q5-Pad1)")
      (node (ref Q5) (pin 1))
      (node (ref R48) (pin 1)))
    (net (code 192) (name "Net-(Q4-Pad1)")
      (node (ref Q4) (pin 1))
      (node (ref R47) (pin 1)))
    (net (code 193) (name /vpp)
      (node (ref Q1) (pin 2))
      (node (ref Q21) (pin 2))
      (node (ref C9) (pin 1))
      (node (ref Q4) (pin 2))
      (node (ref J13) (pin 1))
      (node (ref Q6) (pin 2))
      (node (ref R72) (pin 2))
      (node (ref D2) (pin 1))
      (node (ref C7) (pin 1))
      (node (ref Q3) (pin 2))
      (node (ref Q5) (pin 2))
      (node (ref Q2) (pin 2))
      (node (ref J14) (pin 1)))
    (net (code 194) (name "Net-(Q3-Pad1)")
      (node (ref Q3) (pin 1))
      (node (ref R46) (pin 1)))
    (net (code 195) (name "Net-(Q2-Pad1)")
      (node (ref Q2) (pin 1))
      (node (ref R45) (pin 1)))
    (net (code 196) (name "Net-(Q6-Pad1)")
      (node (ref R49) (pin 1))
      (node (ref Q6) (pin 1)))
    (net (code 197) (name "Net-(Q12-Pad1)")
      (node (ref R55) (pin 1))
      (node (ref Q12) (pin 1)))
    (net (code 198) (name "Net-(Q19-Pad1)")
      (node (ref R62) (pin 1))
      (node (ref Q19) (pin 1)))
    (net (code 199) (name "Net-(Q13-Pad1)")
      (node (ref Q13) (pin 1))
      (node (ref R56) (pin 1)))
    (net (code 200) (name "Net-(Q16-Pad1)")
      (node (ref R59) (pin 1))
      (node (ref Q16) (pin 1)))
    (net (code 201) (name "Net-(Q15-Pad1)")
      (node (ref R58) (pin 1))
      (node (ref Q15) (pin 1)))
    (net (code 202) (name "Net-(Q14-Pad1)")
      (node (ref Q14) (pin 1))
      (node (ref R57) (pin 1)))
    (net (code 203) (name "Net-(C1-Pad1)")
      (node (ref Y1) (pin 1))
      (node (ref U1) (pin 24))
      (node (ref C1) (pin 1)))
    (net (code 204) (name "Net-(C2-Pad1)")
      (node (ref Y1) (pin 2))
      (node (ref C2) (pin 1))
      (node (ref U1) (pin 23)))
    (net (code 205) (name "Net-(Q1-Pad1)")
      (node (ref R44) (pin 1))
      (node (ref Q1) (pin 1)))))